0.561285 0.226159 -0.684216 0.186659 -1
0.815334 0.184413 -0.159142 0.18482 -1
0.114463 0.377545 0.817171 0.182982 -1
-0.146527 0.282643 -0.175282 0.181143 -1
0.803098 0.386669 -0.461496 0.179304 -1
0.508159 0.177156 0.344895 0.177465 -1
0.223886 0.1752 -0.152564 0.175626 -1
-0.403566 0.173396 0.127646 0.173787 -1
0.0524344 0.317165 0.114322 0.171948 -1
0.0445195 0.169755 -0.829605 0.17011 -1
0.246049 0.167866 -0.532396 0.168271 -1
-0.649375 0.166077 -0.833613 0.166432 -1
0.0292774 0.391274 0.470204 0.164593 -1
-0.104923 0.278192 -0.552733 0.162754 -1
-0.306888 0.16065 -0.782633 0.160915 -1
0.516532 0.158776 0.00901749 0.159076 -1
-0.14495 0.156991 0.33412 0.157237 -1
-0.0817839 0.154929 0.654904 0.155399 -1
-0.846541 0.153189 -0.0937876 0.15356 -1
-0.769727 0.151337 -0.518133 0.151721 -1
0.690182 0.290166 0.631852 0.149882 -1
0.184088 0.147416 0.351271 0.148043 -1
0.82286 0.145935 0.853726 0.146204 -1
-0.855724 0.361447 -0.708006 0.144365 -1
-0.631663 0.340447 -0.0140162 0.142526 -1
0.841926 0.140391 0.434579 0.140688 -1
-0.430216 0.138442 -0.20717 0.138849 -1
0.448688 0.136674 0.651063 0.13701 -1
-0.659562 0.268782 -0.280836 0.135171 -1
-0.810371 0.133093 0.866689 0.133332 -1
-0.709031 0.131283 0.154866 0.131493 -1
-0.342053 0.129489 0.541594 0.129654 -1
-0.338688 0.127596 -0.468616 0.127816 -1
-0.728559 0.215546 0.634923 0.125977 -1
-0.580638 0.123854 0.455408 0.124138 -1
-0.304733 0.122145 0.832285 0.122299 -1
-0.877246 0.120311 0.346772 0.12046 -1
0.0224339 0.117982 -0.359889 0.118621 -1
0.200202 0.116292 0.698455 0.116782 -1
0.882092 0.114475 -0.539495 0.114943 -1
0.646 0.11297 -0.417063 0.113105 -1
-0.133655 0.11074 0.0607367 0.111266 -1
0.737198 0.10885 -0.890792 0.109427 -1
0.470193 0.107476 -0.275391 0.107588 -1
0.831505 0.105634 0.124383 0.105749 -1
-0.596426 0.284071 0.293993 0.10391 -1
0.3287 0.101964 0.87662 0.102071 -1
-0.503113 0.100129 0.720461 0.100232 -1
0.564788 0.0982944 0.861575 0.0983936 -1
-0.903465 0.0964144 0.566254 0.0965547 -1
