0.561134 0.226198 -0.684223 0.186659 -1
0.815323 0.184424 -0.158859 0.18482 -1
0.114465 0.377606 0.817121 0.182982 -1
-0.146504 0.282637 -0.175246 0.181143 -1
0.802733 0.386588 -0.461188 0.179304 -1
0.508191 0.177125 0.344971 0.177465 -1
0.223868 0.175264 -0.152669 0.175626 -1
-0.403555 0.173394 0.127686 0.173787 -1
0.0525434 0.317171 0.114266 0.171948 -1
0.044623 0.169753 -0.830005 0.17011 -1
0.245712 0.167895 -0.532708 0.168271 -1
-0.649374 0.166075 -0.833618 0.166432 -1
0.0292757 0.39139 0.470222 0.164593 -1
-0.105198 0.277687 -0.553202 0.162754 -1
-0.306887 0.160652 -0.781998 0.160915 -1
0.516416 0.15879 0.00906266 0.159076 -1
-0.144978 0.15692 0.334078 0.157237 -1
-0.0817735 0.154931 0.654847 0.155399 -1
-0.84653 0.1532 -0.093796 0.15356 -1
-0.76974 0.151339 -0.518138 0.151721 -1
0.690273 0.29012 0.631941 0.149882 -1
0.184127 0.147439 0.351318 0.148043 -1
0.823101 0.145925 0.853747 0.146204 -1
-0.855723 0.361449 -0.708019 0.144365 -1
-0.631628 0.340441 -0.0140197 0.142526 -1
0.841926 0.140415 0.434511 0.140688 -1
-0.430188 0.138452 -0.207152 0.138849 -1
0.448726 0.136704 0.651069 0.13701 -1
-0.659557 0.268762 -0.280838 0.135171 -1
-0.810418 0.133095 0.866679 0.133332 -1
-0.709027 0.131262 0.154879 0.131493 -1
-0.342063 0.129491 0.541625 0.129654 -1
-0.338978 0.127544 -0.468547 0.127816 -1
-0.728591 0.215538 0.634933 0.125977 -1
-0.580645 0.123843 0.455456 0.124138 -1
-0.304734 0.122145 0.832286 0.122299 -1
-0.877246 0.120312 0.346771 0.12046 -1
0.0223152 0.117995 -0.359932 0.118621 -1
0.200248 0.116355 0.698417 0.116782 -1
0.88202 0.114478 -0.539338 0.114943 -1
0.646018 0.112975 -0.417057 0.113105 -1
-0.133611 0.11074 0.0607275 0.111266 -1
0.737151 0.108843 -0.890744 0.109427 -1
0.47023 0.107467 -0.275385 0.107588 -1
0.831505 0.105634 0.124383 0.105749 -1
-0.596402 0.284046 0.294016 0.10391 -1
0.328583 0.101964 0.87662 0.102071 -1
-0.503114 0.100129 0.720461 0.100232 -1
0.564788 0.098294 0.861575 0.0983936 -1
-0.903471 0.0964164 0.566221 0.0965547 -1
