0.561369 0.226149 -0.684192 0.186659 -1
0.815347 0.184429 -0.159324 0.18482 -1
0.114454 0.377537 0.817163 0.182982 -1
-0.14654 0.282656 -0.175307 0.181143 -1
0.803305 0.386727 -0.461686 0.179304 -1
0.508136 0.177156 0.344875 0.177465 -1
0.223901 0.175195 -0.152487 0.175626 -1
-0.40357 0.173401 0.127621 0.173787 -1
0.0523705 0.317201 0.114369 0.171948 -1
0.0444376 0.169742 -0.829343 0.17011 -1
0.246283 0.167857 -0.532181 0.168271 -1
-0.649374 0.166075 -0.833611 0.166432 -1
0.0292054 0.391249 0.470193 0.164593 -1
-0.104776 0.278512 -0.552434 0.162754 -1
-0.306889 0.160647 -0.783057 0.160915 -1
0.516609 0.158774 0.00895351 0.159076 -1
-0.144944 0.157048 0.334143 0.157237 -1
-0.0817934 0.154897 0.654925 0.155399 -1
-0.846533 0.153188 -0.0938024 0.15356 -1
-0.769715 0.15134 -0.518124 0.151721 -1
0.690129 0.290205 0.631798 0.149882 -1
0.184082 0.147411 0.351234 0.148043 -1
0.822703 0.145941 0.853715 0.146204 -1
-0.855722 0.361444 -0.708 0.144365 -1
-0.631667 0.340456 -0.0140084 0.142526 -1
0.841926 0.140371 0.434618 0.140688 -1
-0.430217 0.138419 -0.207191 0.138849 -1
0.448654 0.136702 0.651081 0.13701 -1
-0.659556 0.268793 -0.280831 0.135171 -1
-0.810336 0.1331 0.866682 0.133332 -1
-0.709019 0.131291 0.154864 0.131493 -1
-0.342045 0.129491 0.541581 0.129654 -1
-0.338477 0.127615 -0.46865 0.127816 -1
-0.728544 0.215547 0.63492 0.125977 -1
-0.580643 0.123853 0.455388 0.124138 -1
-0.304733 0.122145 0.832285 0.122299 -1
-0.877246 0.12031 0.346772 0.12046 -1
0.0225156 0.118 -0.359821 0.118621 -1
0.200196 0.11629 0.69853 0.116782 -1
0.882073 0.114451 -0.539648 0.114943 -1
0.645987 0.112972 -0.417067 0.113105 -1
-0.133652 0.110753 0.0606916 0.111266 -1
0.737203 0.108847 -0.89082 0.109427 -1
0.470155 0.107468 -0.275392 0.107588 -1
0.831505 0.105634 0.124383 0.105749 -1
-0.596418 0.284088 0.293993 0.10391 -1
0.328785 0.101964 0.87662 0.102071 -1
-0.503113 0.100129 0.720461 0.100232 -1
0.564788 0.0982942 0.861575 0.0983936 -1
-0.903457 0.0964158 0.566287 0.0965547 -1
