0.560421 0.226128 -0.684403 0.186659 -1
0.815367 0.184432 -0.158071 0.18482 -1
0.114525 0.377549 0.81714 0.182982 -1
-0.146451 0.282792 -0.175016 0.181143 -1
0.801213 0.386434 -0.46045 0.179304 -1
0.508258 0.177146 0.345151 0.177465 -1
0.22388 0.175259 -0.153029 0.175626 -1
-0.403482 0.173394 0.127847 0.173787 -1
0.0529985 0.317175 0.114238 0.171948 -1
0.0446551 0.169632 -0.829808 0.17011 -1
0.244614 0.167894 -0.533845 0.168271 -1
-0.649372 0.166073 -0.833614 0.166432 -1
0.0289853 0.39142 0.470265 0.164593 -1
-0.106205 0.277264 -0.553427 0.162754 -1
-0.306889 0.160649 -0.779889 0.160915 -1
0.516113 0.158768 0.00924125 0.159076 -1
-0.144985 0.156979 0.334006 0.157237 -1
-0.0817094 0.15488 0.654884 0.155399 -1
-0.846487 0.153203 -0.0937655 0.15356 -1
-0.769763 0.151342 -0.518129 0.151721 -1
0.690601 0.289805 0.632038 0.149882 -1
0.184192 0.147564 0.351518 0.148043 -1
0.823772 0.14591 0.853804 0.146204 -1
-0.855726 0.361445 -0.708017 0.144365 -1
-0.631478 0.340382 -0.0140601 0.142526 -1
0.842005 0.140397 0.434221 0.140688 -1
-0.430092 0.138458 -0.207165 0.138849 -1
0.448843 0.136703 0.651286 0.13701 -1
-0.659479 0.268713 -0.280856 0.135171 -1
-0.810624 0.13309 0.866691 0.133332 -1
-0.709012 0.131272 0.154931 0.131493 -1
-0.342084 0.129491 0.541815 0.129654 -1
-0.339989 0.127451 -0.468364 0.127816 -1
-0.728616 0.215532 0.635004 0.125977 -1
-0.580636 0.123856 0.455543 0.124138 -1
-0.304733 0.122145 0.832286 0.122299 -1
-0.877246 0.120311 0.346771 0.12046 -1
0.0219333 0.118149 -0.360083 0.118621 -1
0.200244 0.116392 0.698084 0.116782 -1
0.881824 0.114597 -0.538474 0.114943 -1
0.646031 0.112975 -0.417054 0.113105 -1
-0.133361 0.110832 0.0609372 0.111266 -1
0.736877 0.108981 -0.890752 0.109427 -1
0.470362 0.107466 -0.275382 0.107588 -1
0.831505 0.105634 0.124383 0.105749 -1
-0.596393 0.284057 0.294108 0.10391 -1
0.32819 0.101964 0.87662 0.102071 -1
-0.503114 0.100129 0.720461 0.100232 -1
0.564788 0.0982941 0.861575 0.0983936 -1
-0.903464 0.0964249 0.566136 0.0965547 -1
