0.560287 0.226041 -0.684493 0.186659 -1
0.815365 0.184435 -0.157921 0.18482 -1
0.114566 0.377478 0.817156 0.182982 -1
-0.146444 0.282787 -0.174936 0.181143 -1
0.800873 0.386371 -0.460382 0.179304 -1
0.508279 0.177146 0.345151 0.177465 -1
0.223886 0.175237 -0.153122 0.175626 -1
-0.403469 0.173399 0.127863 0.173787 -1
0.0530854 0.317144 0.114253 0.171948 -1
0.0445474 0.169758 -0.829674 0.17011 -1
0.244414 0.167837 -0.53407 0.168271 -1
-0.649373 0.166071 -0.833615 0.166432 -1
0.028905 0.391363 0.470236 0.164593 -1
-0.10631 0.277292 -0.553295 0.162754 -1
-0.306888 0.160651 -0.779466 0.160915 -1
0.516058 0.158783 0.00926318 0.159076 -1
-0.144987 0.156944 0.333993 0.157237 -1
-0.0817097 0.15485 0.654904 0.155399 -1
-0.84648 0.153202 -0.0937587 0.15356 -1
-0.769766 0.151341 -0.518127 0.151721 -1
0.69065 0.28973 0.632039 0.149882 -1
0.184228 0.147511 0.35156 0.148043 -1
0.823916 0.145929 0.853801 0.146204 -1
-0.855727 0.361444 -0.708022 0.144365 -1
-0.631462 0.340351 -0.0140522 0.142526 -1
0.842027 0.140381 0.434154 0.140688 -1
-0.430073 0.138449 -0.207141 0.138849 -1
0.448874 0.136693 0.651317 0.13701 -1
-0.659473 0.268705 -0.280854 0.135171 -1
-0.810664 0.133091 0.866697 0.133332 -1
-0.708995 0.131283 0.154933 0.131493 -1
-0.342093 0.129487 0.541853 0.129654 -1
-0.340141 0.127468 -0.468383 0.127816 -1
-0.728631 0.215528 0.635019 0.125977 -1
-0.580637 0.123849 0.455556 0.124138 -1
-0.304734 0.122145 0.832286 0.122299 -1
-0.877246 0.120311 0.346771 0.12046 -1
0.0219094 0.118152 -0.360061 0.118621 -1
0.200258 0.116373 0.697996 0.116782 -1
0.881763 0.114597 -0.538365 0.114943 -1
0.646032 0.112974 -0.417053 0.113105 -1
-0.133324 0.110813 0.0610033 0.111266 -1
0.736878 0.108989 -0.890777 0.109427 -1
0.470377 0.107468 -0.27538 0.107588 -1
0.831505 0.105634 0.124383 0.105749 -1
-0.596428 0.284051 0.294127 0.10391 -1
0.328114 0.101964 0.87662 0.102071 -1
-0.503113 0.100129 0.720461 0.100232 -1
0.564788 0.0982943 0.861575 0.0983936 -1
-0.903466 0.0964246 0.566114 0.0965547 -1
