0.560787 0.226238 -0.68424 0.186659 -1
0.815356 0.184408 -0.158411 0.18482 -1
0.114461 0.377669 0.817051 0.182982 -1
-0.146476 0.28271 -0.175167 0.181143 -1
0.802003 0.386525 -0.460737 0.179304 -1
0.508246 0.177139 0.345061 0.177465 -1
0.22386 0.175276 -0.152877 0.175626 -1
-0.403514 0.173379 0.127763 0.173787 -1
0.0527563 0.317264 0.114244 0.171948 -1
0.0447611 0.169661 -0.830095 0.17011 -1
0.24516 0.167959 -0.53328 0.168271 -1
-0.649369 0.166078 -0.833618 0.166432 -1
0.0291675 0.391512 0.470283 0.164593 -1
-0.105748 0.277113 -0.553704 0.162754 -1
-0.306888 0.160648 -0.780944 0.160915 -1
0.516273 0.158761 0.00917226 0.159076 -1
-0.145006 0.157022 0.334026 0.157237 -1
-0.0817246 0.154935 0.654824 0.155399 -1
-0.846482 0.153199 -0.0937728 0.15356 -1
-0.769747 0.151344 -0.518127 0.151721 -1
0.690453 0.289994 0.632032 0.149882 -1
0.184132 0.147539 0.351431 0.148043 -1
0.823436 0.145903 0.853775 0.146204 -1
-0.855723 0.361448 -0.708017 0.144365 -1
-0.631527 0.340399 -0.0140433 0.142526 -1
0.841954 0.140421 0.434375 0.140688 -1
-0.430156 0.138468 -0.207175 0.138849 -1
0.448787 0.136732 0.651218 0.13701 -1
-0.659516 0.268758 -0.280859 0.135171 -1
-0.810523 0.133091 0.866693 0.133332 -1
-0.709014 0.131292 0.154924 0.131493 -1
-0.342067 0.129489 0.541703 0.129654 -1
-0.339509 0.127434 -0.468386 0.127816 -1
-0.7286 0.215541 0.634968 0.125977 -1
-0.580638 0.123857 0.45548 0.124138 -1
-0.304733 0.122145 0.832285 0.122299 -1
-0.877246 0.120311 0.346771 0.12046 -1
0.0220846 0.118065 -0.360081 0.118621 -1
0.200234 0.116368 0.698345 0.116782 -1
0.881891 0.114558 -0.538973 0.114943 -1
0.646012 0.112971 -0.417061 0.113105 -1
-0.133464 0.110829 0.0608529 0.111266 -1
0.736941 0.108906 -0.890722 0.109427 -1
0.47031 0.107473 -0.275384 0.107588 -1
0.831505 0.105634 0.124383 0.105749 -1
-0.596401 0.284073 0.294056 0.10391 -1
0.32837 0.101964 0.87662 0.102071 -1
-0.503113 0.100129 0.720461 0.100232 -1
0.564788 0.0982944 0.861575 0.0983936 -1
-0.903467 0.0964225 0.56619 0.0965547 -1
