0.560713 0.22623 -0.684261 0.186659 -1
0.815359 0.18441 -0.15834 0.18482 -1
0.114466 0.377657 0.817063 0.182982 -1
-0.146469 0.282728 -0.175137 0.181143 -1
0.801852 0.386513 -0.460664 0.179304 -1
0.508248 0.17714 0.345088 0.177465 -1
0.223858 0.175282 -0.152905 0.175626 -1
-0.403506 0.173381 0.127783 0.173787 -1
0.0528049 0.317261 0.114229 0.171948 -1
0.0447679 0.169624 -0.830043 0.17011 -1
0.245044 0.167954 -0.533395 0.168271 -1
-0.649369 0.166078 -0.833616 0.166432 -1
0.0291364 0.391507 0.470285 0.164593 -1
-0.105867 0.277117 -0.553689 0.162754 -1
-0.306888 0.160647 -0.780734 0.160915 -1
0.516247 0.15876 0.00918901 0.159076 -1
-0.145003 0.157035 0.334022 0.157237 -1
-0.0817211 0.154927 0.654835 0.155399 -1
-0.846481 0.153196 -0.0937721 0.15356 -1
-0.769749 0.151343 -0.518127 0.151721 -1
0.690486 0.289961 0.63204 0.149882 -1
0.184139 0.147543 0.351462 0.148043 -1
0.8235 0.145892 0.853784 0.146204 -1
-0.855723 0.361447 -0.708014 0.144365 -1
-0.631512 0.340399 -0.0140521 0.142526 -1
0.841964 0.140418 0.434345 0.140688 -1
-0.430134 0.138479 -0.207182 0.138849 -1
0.448794 0.136741 0.651225 0.13701 -1
-0.659515 0.268756 -0.280858 0.135171 -1
-0.810545 0.133095 0.866685 0.133332 -1
-0.709015 0.131289 0.15493 0.131493 -1
-0.342064 0.129493 0.541725 0.129654 -1
-0.339614 0.12744 -0.468367 0.127816 -1
-0.7286 0.215537 0.634973 0.125977 -1
-0.580632 0.123855 0.455493 0.124138 -1
-0.304733 0.122145 0.832285 0.122299 -1
-0.877246 0.120311 0.346771 0.12046 -1
0.022051 0.118095 -0.360098 0.118621 -1
0.200241 0.116379 0.698299 0.116782 -1
0.88188 0.114571 -0.538864 0.114943 -1
0.646014 0.112971 -0.417061 0.113105 -1
-0.133465 0.110827 0.0608571 0.111266 -1
0.736912 0.108925 -0.890728 0.109427 -1
0.470326 0.107473 -0.275385 0.107588 -1
0.831505 0.105634 0.124383 0.105749 -1
-0.596398 0.284073 0.294062 0.10391 -1
0.32833 0.101964 0.87662 0.102071 -1
-0.503113 0.100129 0.720461 0.100232 -1
0.564788 0.0982943 0.861575 0.0983936 -1
-0.903467 0.0964207 0.566181 0.0965547 -1
