0.559772 0.225572 -0.684851 0.186659 -1
0.815345 0.184479 -0.157398 0.18482 -1
0.114744 0.377347 0.8171 0.182982 -1
-0.146416 0.282574 -0.174687 0.181143 -1
0.799726 0.385945 -0.46009 0.179304 -1
0.508379 0.177126 0.345222 0.177465 -1
0.223848 0.17533 -0.153461 0.175626 -1
-0.403465 0.173395 0.127892 0.173787 -1
0.0534543 0.316909 0.114321 0.171948 -1
0.0444078 0.169746 -0.829513 0.17011 -1
0.243554 0.167822 -0.535058 0.168271 -1
-0.649375 0.166074 -0.833611 0.166432 -1
0.0285566 0.391314 0.46984 0.164593 -1
-0.10637 0.277166 -0.552877 0.162754 -1
-0.307285 0.160683 -0.778282 0.160915 -1
0.51582 0.158716 0.00931524 0.159076 -1
-0.144978 0.156921 0.333952 0.157237 -1
-0.08172 0.154868 0.654903 0.155399 -1
-0.84647 0.153197 -0.0937695 0.15356 -1
-0.769741 0.151339 -0.518098 0.151721 -1
0.690871 0.289585 0.632067 0.149882 -1
0.184328 0.147449 0.351847 0.148043 -1
0.824437 0.145945 0.853778 0.146204 -1
-0.855722 0.361441 -0.707997 0.144365 -1
-0.63147 0.340349 -0.0140309 0.142526 -1
0.842085 0.140387 0.433931 0.140688 -1
-0.43008 0.138426 -0.207066 0.138849 -1
0.448983 0.136711 0.651413 0.13701 -1
-0.659429 0.268728 -0.280842 0.135171 -1
-0.810828 0.133093 0.866689 0.133332 -1
-0.708972 0.131277 0.15492 0.131493 -1
-0.342168 0.129499 0.541975 0.129654 -1
-0.340765 0.127702 -0.468386 0.127816 -1
-0.728718 0.215544 0.635034 0.125977 -1
-0.580681 0.123863 0.455611 0.124138 -1
-0.304733 0.122145 0.832285 0.122299 -1
-0.877246 0.120311 0.346771 0.12046 -1
0.0219049 0.117997 -0.359946 0.118621 -1
0.200295 0.11632 0.697749 0.116782 -1
0.881608 0.114491 -0.537753 0.114943 -1
0.646035 0.112974 -0.417054 0.113105 -1
-0.133369 0.110869 0.0614583 0.111266 -1
0.736799 0.108938 -0.89086 0.109427 -1
0.470445 0.107468 -0.27538 0.107588 -1
0.831505 0.105634 0.124383 0.105749 -1
-0.596414 0.284038 0.294134 0.10391 -1
0.327841 0.101964 0.87662 0.102071 -1
-0.503114 0.100129 0.720461 0.100232 -1
0.564788 0.0982942 0.861575 0.0983936 -1
-0.903479 0.0964188 0.56602 0.0965547 -1
