0.559427 0.225411 -0.684989 0.186659 -1
0.815385 0.184488 -0.15708 0.18482 -1
0.114876 0.377366 0.817128 0.182982 -1
-0.14634 0.282383 -0.174521 0.181143 -1
0.799157 0.385702 -0.459913 0.179304 -1
0.50842 0.17713 0.34527 0.177465 -1
0.223874 0.175254 -0.153663 0.175626 -1
-0.403539 0.173382 0.127833 0.173787 -1
0.0536633 0.316808 0.114255 0.171948 -1
0.0444799 0.169767 -0.829549 0.17011 -1
0.242988 0.167801 -0.535606 0.168271 -1
-0.649368 0.16607 -0.833606 0.166432 -1
0.0283927 0.391431 0.469603 0.164593 -1
-0.106539 0.276607 -0.55296 0.162754 -1
-0.308 0.160625 -0.778145 0.160915 -1
0.515674 0.158749 0.00934462 0.159076 -1
-0.145058 0.156921 0.333921 0.157237 -1
-0.0816692 0.154966 0.65485 0.155399 -1
-0.846492 0.153192 -0.0937694 0.15356 -1
-0.769703 0.151345 -0.518092 0.151721 -1
0.691028 0.289467 0.632133 0.149882 -1
0.184374 0.147519 0.352042 0.148043 -1
0.824773 0.14591 0.853803 0.146204 -1
-0.855717 0.36144 -0.707988 0.144365 -1
-0.631535 0.340367 -0.0139925 0.142526 -1
0.842119 0.140422 0.433799 0.140688 -1
-0.430087 0.138429 -0.207036 0.138849 -1
0.449031 0.136737 0.651426 0.13701 -1
-0.659449 0.268745 -0.280811 0.135171 -1
-0.810916 0.133102 0.866682 0.133332 -1
-0.709014 0.131271 0.154922 0.131493 -1
-0.342169 0.129513 0.542017 0.129654 -1
-0.341153 0.127561 -0.468343 0.127816 -1
-0.728732 0.215537 0.635036 0.125977 -1
-0.580682 0.12385 0.455615 0.124138 -1
-0.304734 0.122145 0.832286 0.122299 -1
-0.877246 0.120311 0.346771 0.12046 -1
0.0219251 0.117868 -0.359828 0.118621 -1
0.200268 0.116341 0.697591 0.116782 -1
0.881764 0.114464 -0.53751 0.114943 -1
0.646033 0.112973 -0.417053 0.113105 -1
-0.133389 0.110846 0.0617664 0.111266 -1
0.736694 0.108856 -0.89081 0.109427 -1
0.470472 0.10747 -0.27538 0.107588 -1
0.831505 0.105634 0.124383 0.105749 -1
-0.596428 0.284011 0.294147 0.10391 -1
0.327671 0.101964 0.87662 0.102071 -1
-0.503113 0.100129 0.720461 0.100232 -1
0.564788 0.0982941 0.861575 0.0983936 -1
-0.903477 0.0964175 0.565983 0.0965547 -1
