0.559091 0.225402 -0.685152 0.186659 -1
0.815421 0.184488 -0.15675 0.18482 -1
0.114973 0.377364 0.817111 0.182982 -1
-0.146338 0.282212 -0.174414 0.181143 -1
0.798502 0.38557 -0.459644 0.179304 -1
0.508495 0.177115 0.345347 0.177465 -1
0.223901 0.175288 -0.153832 0.175626 -1
-0.40362 0.173375 0.127783 0.173787 -1
0.053957 0.31676 0.114254 0.171948 -1
0.0445662 0.169748 -0.82963 0.17011 -1
0.242408 0.16792 -0.536047 0.168271 -1
-0.649355 0.16607 -0.833609 0.166432 -1
0.0282917 0.391456 0.469574 0.164593 -1
-0.107068 0.276329 -0.553173 0.162754 -1
-0.308789 0.160509 -0.778127 0.160915 -1
0.515585 0.158785 0.0093984 0.159076 -1
-0.145147 0.156905 0.333879 0.157237 -1
-0.0816393 0.155007 0.654866 0.155399 -1
-0.846503 0.1532 -0.0937826 0.15356 -1
-0.769698 0.151347 -0.518082 0.151721 -1
0.691165 0.289283 0.632166 0.149882 -1
0.184419 0.147523 0.352224 0.148043 -1
0.825126 0.145919 0.853803 0.146204 -1
-0.855714 0.361433 -0.707999 0.144365 -1
-0.631613 0.340402 -0.0139812 0.142526 -1
0.842172 0.140388 0.433637 0.140688 -1
-0.430149 0.138413 -0.207066 0.138849 -1
0.449102 0.136698 0.651504 0.13701 -1
-0.659452 0.268755 -0.280806 0.135171 -1
-0.810983 0.133089 0.866692 0.133332 -1
-0.709037 0.131283 0.154931 0.131493 -1
-0.342135 0.129496 0.542068 0.129654 -1
-0.341669 0.127548 -0.468261 0.127816 -1
-0.728721 0.215491 0.635076 0.125977 -1
-0.580651 0.123863 0.455646 0.124138 -1
-0.304733 0.122145 0.832285 0.122299 -1
-0.877246 0.120311 0.346771 0.12046 -1
0.0217804 0.117873 -0.359888 0.118621 -1
0.200236 0.116338 0.697458 0.116782 -1
0.881726 0.114499 -0.537275 0.114943 -1
0.646035 0.112973 -0.417052 0.113105 -1
-0.133371 0.110907 0.0620483 0.111266 -1
0.736601 0.108813 -0.890771 0.109427 -1
0.470507 0.107462 -0.275397 0.107588 -1
0.831505 0.105634 0.124383 0.105749 -1
-0.596448 0.284017 0.294169 0.10391 -1
0.327537 0.101964 0.87662 0.102071 -1
-0.503114 0.100129 0.720461 0.100232 -1
0.564788 0.0982942 0.861575 0.0983936 -1
-0.903465 0.0964146 0.565909 0.0965547 -1
