0.558431 0.22543 -0.6855 0.186659 -1
0.815413 0.184483 -0.156221 0.18482 -1
0.115102 0.377233 0.817128 0.182982 -1
-0.146419 0.282212 -0.17402 0.181143 -1
0.797155 0.385363 -0.45911 0.179304 -1
0.508651 0.177113 0.345461 0.177465 -1
0.223917 0.175222 -0.154125 0.175626 -1
-0.403643 0.17338 0.127783 0.173787 -1
0.0543256 0.316444 0.11428 0.171948 -1
0.0445663 0.169758 -0.829738 0.17011 -1
0.241562 0.167914 -0.536916 0.168271 -1
-0.649367 0.16607 -0.833603 0.166432 -1
0.0282482 0.391397 0.469827 0.164593 -1
-0.107399 0.276264 -0.553413 0.162754 -1
-0.309768 0.160692 -0.777949 0.160915 -1
0.515374 0.158766 0.00951871 0.159076 -1
-0.145083 0.156941 0.333799 0.157237 -1
-0.0816747 0.154928 0.655032 0.155399 -1
-0.846542 0.153214 -0.093782 0.15356 -1
-0.76972 0.151339 -0.518093 0.151721 -1
0.691352 0.28907 0.632195 0.149882 -1
0.184606 0.147546 0.352541 0.148043 -1
0.825629 0.145917 0.85379 0.146204 -1
-0.855719 0.361439 -0.707992 0.144365 -1
-0.631658 0.340418 -0.0139841 0.142526 -1
0.842243 0.1404 0.433413 0.140688 -1
-0.43021 0.138441 -0.207043 0.138849 -1
0.449135 0.136716 0.651597 0.13701 -1
-0.659518 0.268762 -0.280811 0.135171 -1
-0.811069 0.13309 0.866685 0.133332 -1
-0.70907 0.131276 0.154921 0.131493 -1
-0.342194 0.129498 0.54226 0.129654 -1
-0.342068 0.127568 -0.468338 0.127816 -1
-0.728692 0.215453 0.635089 0.125977 -1
-0.580634 0.123856 0.455632 0.124138 -1
-0.304734 0.122145 0.832285 0.122299 -1
-0.877246 0.120311 0.346771 0.12046 -1
0.0214762 0.118016 -0.359946 0.118621 -1
0.200209 0.116307 0.697247 0.116782 -1
0.881525 0.114569 -0.536652 0.114943 -1
0.646033 0.112974 -0.417052 0.113105 -1
-0.133345 0.110875 0.0623846 0.111266 -1
0.73644 0.108902 -0.890773 0.109427 -1
0.470674 0.10745 -0.275515 0.107588 -1
0.831505 0.105634 0.124383 0.105749 -1
-0.5965 0.284004 0.294159 0.10391 -1
0.327322 0.101964 0.87662 0.102071 -1
-0.503114 0.100129 0.720461 0.100232 -1
0.564788 0.0982942 0.861575 0.0983936 -1
-0.903451 0.096424 0.565824 0.0965547 -1
