0.558513 0.225439 -0.685446 0.186659 -1
0.815413 0.184491 -0.156287 0.18482 -1
0.115086 0.37725 0.81712 0.182982 -1
-0.146406 0.282222 -0.174076 0.181143 -1
0.797341 0.385393 -0.459176 0.179304 -1
0.508626 0.177115 0.345451 0.177465 -1
0.223913 0.175216 -0.154097 0.175626 -1
-0.403643 0.173386 0.127784 0.173787 -1
0.0542792 0.316492 0.114259 0.171948 -1
0.0445562 0.169757 -0.829711 0.17011 -1
0.241679 0.167943 -0.536804 0.168271 -1
-0.649364 0.16607 -0.833602 0.166432 -1
0.0282475 0.391398 0.46978 0.164593 -1
-0.107392 0.276299 -0.553373 0.162754 -1
-0.309664 0.160684 -0.777978 0.160915 -1
0.515401 0.158762 0.00950986 0.159076 -1
-0.145102 0.156932 0.333798 0.157237 -1
-0.0816564 0.154941 0.655013 0.155399 -1
-0.846543 0.153216 -0.0937809 0.15356 -1
-0.769719 0.151339 -0.518092 0.151721 -1
0.691333 0.289097 0.632193 0.149882 -1
0.184578 0.147549 0.352491 0.148043 -1
0.825562 0.14591 0.853794 0.146204 -1
-0.85572 0.361438 -0.70799 0.144365 -1
-0.631667 0.340419 -0.0139804 0.142526 -1
0.842236 0.140397 0.43344 0.140688 -1
-0.430198 0.138449 -0.207039 0.138849 -1
0.449124 0.136725 0.651581 0.13701 -1
-0.659502 0.268757 -0.280814 0.135171 -1
-0.811055 0.13309 0.866684 0.133332 -1
-0.709068 0.131273 0.154921 0.131493 -1
-0.34218 0.1295 0.542238 0.129654 -1
-0.342013 0.127532 -0.468339 0.127816 -1
-0.72869 0.215455 0.635084 0.125977 -1
-0.580635 0.123857 0.455636 0.124138 -1
-0.304734 0.122145 0.832285 0.122299 -1
-0.877246 0.120311 0.346771 0.12046 -1
0.0215321 0.117993 -0.359941 0.118621 -1
0.200214 0.116306 0.697268 0.116782 -1
0.881559 0.114551 -0.536687 0.114943 -1
0.646033 0.112974 -0.417051 0.113105 -1
-0.133347 0.110872 0.0623465 0.111266 -1
0.736439 0.108884 -0.890768 0.109427 -1
0.47065 0.107457 -0.275499 0.107588 -1
0.831505 0.105634 0.124383 0.105749 -1
-0.596493 0.284006 0.294156 0.10391 -1
0.327343 0.101964 0.87662 0.102071 -1
-0.503114 0.100129 0.720461 0.100232 -1
0.564788 0.0982942 0.861575 0.0983936 -1
-0.903452 0.0964202 0.565841 0.0965547 -1
