0.558009 0.225332 -0.68579 0.186659 -1
0.815399 0.184482 -0.155909 0.18482 -1
0.115139 0.3772 0.817123 0.182982 -1
-0.146474 0.282105 -0.173795 0.181143 -1
0.796235 0.385184 -0.458864 0.179304 -1
0.508784 0.177101 0.345535 0.177465 -1
0.223904 0.175237 -0.154255 0.175626 -1
-0.403611 0.17338 0.127835 0.173787 -1
0.0545 0.316248 0.114419 0.171948 -1
0.0446281 0.169764 -0.829928 0.17011 -1
0.24106 0.167819 -0.537509 0.168271 -1
-0.649372 0.166071 -0.833613 0.166432 -1
0.0283097 0.391352 0.470027 0.164593 -1
-0.107513 0.275932 -0.553692 0.162754 -1
-0.310428 0.16058 -0.777959 0.160915 -1
0.515263 0.158743 0.00962257 0.159076 -1
-0.145065 0.156961 0.333809 0.157237 -1
-0.0817311 0.154899 0.655136 0.155399 -1
-0.846542 0.153214 -0.093774 0.15356 -1
-0.769746 0.151344 -0.518099 0.151721 -1
0.691455 0.288922 0.632211 0.149882 -1
0.184755 0.147536 0.352872 0.148043 -1
0.825982 0.145936 0.853781 0.146204 -1
-0.855722 0.361443 -0.708001 0.144365 -1
-0.631601 0.340384 -0.0139929 0.142526 -1
0.842278 0.140407 0.433255 0.140688 -1
-0.430248 0.13843 -0.207081 0.138849 -1
0.449163 0.136703 0.651628 0.13701 -1
-0.659539 0.268767 -0.280821 0.135171 -1
-0.811159 0.133091 0.866686 0.133332 -1
-0.709086 0.131277 0.154919 0.131493 -1
-0.342279 0.129499 0.542395 0.129654 -1
-0.342358 0.127658 -0.468328 0.127816 -1
-0.728712 0.215426 0.635111 0.125977 -1
-0.580673 0.123855 0.455643 0.124138 -1
-0.304733 0.122145 0.832285 0.122299 -1
-0.877246 0.120311 0.346772 0.12046 -1
0.0214188 0.118061 -0.359956 0.118621 -1
0.200203 0.116298 0.697163 0.116782 -1
0.881266 0.11458 -0.536378 0.114943 -1
0.646037 0.112973 -0.41705 0.113105 -1
-0.13329 0.110812 0.0626107 0.111266 -1
0.736401 0.108972 -0.890829 0.109427 -1
0.470747 0.107482 -0.275581 0.107588 -1
0.831505 0.105634 0.124383 0.105749 -1
-0.596496 0.284003 0.294158 0.10391 -1
0.3272 0.101964 0.87662 0.102071 -1
-0.503114 0.100129 0.720461 0.100232 -1
0.564788 0.0982942 0.861575 0.0983936 -1
-0.903449 0.0964152 0.565793 0.0965547 -1
