0.557293 0.225032 -0.68657 0.186659 -1
0.815405 0.184504 -0.155293 0.18482 -1
0.115171 0.377265 0.817123 0.182982 -1
-0.146224 0.281711 -0.173625 0.181143 -1
0.79455 0.384692 -0.458501 0.179304 -1
0.509031 0.177152 0.345698 0.177465 -1
0.223908 0.175284 -0.154644 0.175626 -1
-0.403584 0.173393 0.127927 0.173787 -1
0.0548889 0.315927 0.114512 0.171948 -1
0.0444902 0.169785 -0.829825 0.17011 -1
0.239886 0.167882 -0.539044 0.168271 -1
-0.649375 0.166077 -0.833618 0.166432 -1
0.0283526 0.391336 0.470138 0.164593 -1
-0.108465 0.275597 -0.55385 0.162754 -1
-0.311734 0.160631 -0.777982 0.160915 -1
0.514953 0.158752 0.00974384 0.159076 -1
-0.144998 0.156965 0.333858 0.157237 -1
-0.0817709 0.15489 0.655306 0.155399 -1
-0.846509 0.153192 -0.0937639 0.15356 -1
-0.769783 0.151339 -0.518133 0.151721 -1
0.691791 0.288522 0.632277 0.149882 -1
0.18497 0.147515 0.353323 0.148043 -1
0.826718 0.145907 0.853802 0.146204 -1
-0.855725 0.361448 -0.708025 0.144365 -1
-0.631518 0.340353 -0.0140512 0.142526 -1
0.842377 0.140401 0.432875 0.140688 -1
-0.430219 0.13846 -0.207107 0.138849 -1
0.449244 0.136715 0.65178 0.13701 -1
-0.659551 0.268759 -0.280865 0.135171 -1
-0.811328 0.1331 0.86668 0.133332 -1
-0.709114 0.131275 0.154974 0.131493 -1
-0.342432 0.129503 0.542852 0.129654 -1
-0.343158 0.127482 -0.468318 0.127816 -1
-0.728783 0.215426 0.63513 0.125977 -1
-0.580669 0.123861 0.455721 0.124138 -1
-0.304733 0.122145 0.832285 0.122299 -1
-0.877246 0.120311 0.346772 0.12046 -1
0.0212533 0.118001 -0.360259 0.118621 -1
0.200159 0.116365 0.696995 0.116782 -1
0.881141 0.114547 -0.535877 0.114943 -1
0.646036 0.112973 -0.417049 0.113105 -1
-0.133193 0.11072 0.0629763 0.111266 -1
0.736492 0.108883 -0.890885 0.109427 -1
0.47089 0.107466 -0.275713 0.107588 -1
0.831505 0.105634 0.124383 0.105749 -1
-0.59653 0.283992 0.294219 0.10391 -1
0.326978 0.101964 0.87662 0.102071 -1
-0.503114 0.100129 0.720461 0.100232 -1
0.564788 0.0982942 0.861575 0.0983936 -1
-0.903464 0.0964227 0.56568 0.0965547 -1
