0.557592 0.22518 -0.686244 0.186659 -1
0.815411 0.184483 -0.15557 0.18482 -1
0.115142 0.377238 0.817098 0.182982 -1
-0.146356 0.281832 -0.173671 0.181143 -1
0.795244 0.384934 -0.458658 0.179304 -1
0.508928 0.177117 0.345656 0.177465 -1
0.223905 0.175293 -0.154412 0.175626 -1
-0.403585 0.17338 0.127904 0.173787 -1
0.0546554 0.316084 0.114521 0.171948 -1
0.0445969 0.169689 -0.829954 0.17011 -1
0.240472 0.167835 -0.538301 0.168271 -1
-0.649372 0.166072 -0.833617 0.166432 -1
0.0283605 0.391348 0.470138 0.164593 -1
-0.108009 0.275531 -0.553893 0.162754 -1
-0.311245 0.160645 -0.778024 0.160915 -1
0.515114 0.158734 0.00971236 0.159076 -1
-0.144999 0.156973 0.333864 0.157237 -1
-0.0817665 0.154884 0.655228 0.155399 -1
-0.846527 0.153204 -0.0937606 0.15356 -1
-0.769771 0.151339 -0.518125 0.151721 -1
0.69163 0.288684 0.632251 0.149882 -1
0.184878 0.147517 0.3531 0.148043 -1
0.826372 0.14591 0.853804 0.146204 -1
-0.855725 0.361443 -0.708014 0.144365 -1
-0.631556 0.340369 -0.0140209 0.142526 -1
0.842341 0.140399 0.433046 0.140688 -1
-0.430258 0.138431 -0.207103 0.138849 -1
0.449195 0.136719 0.651737 0.13701 -1
-0.659564 0.268771 -0.28085 0.135171 -1
-0.811246 0.133088 0.866681 0.133332 -1
-0.709093 0.131276 0.154942 0.131493 -1
-0.342354 0.129498 0.542629 0.129654 -1
-0.342802 0.127488 -0.468326 0.127816 -1
-0.728764 0.215428 0.635122 0.125977 -1
-0.580671 0.123866 0.455692 0.124138 -1
-0.304734 0.122145 0.832285 0.122299 -1
-0.877246 0.120311 0.346771 0.12046 -1
0.0213742 0.118042 -0.3601 0.118621 -1
0.200181 0.116331 0.697084 0.116782 -1
0.881146 0.114572 -0.536008 0.114943 -1
0.646034 0.112973 -0.41705 0.113105 -1
-0.133226 0.11073 0.0628493 0.111266 -1
0.7364 0.108961 -0.890904 0.109427 -1
0.470854 0.107469 -0.275659 0.107588 -1
0.831505 0.105634 0.124383 0.105749 -1
-0.596517 0.283992 0.294197 0.10391 -1
0.327082 0.101964 0.87662 0.102071 -1
-0.503114 0.100129 0.720461 0.100232 -1
0.564788 0.0982941 0.861575 0.0983936 -1
-0.903462 0.0964215 0.565715 0.0965547 -1
