0.557174 0.224974 -0.686664 0.186659 -1
0.815397 0.184482 -0.155182 0.18482 -1
0.11519 0.377264 0.817118 0.182982 -1
-0.146168 0.28172 -0.173598 0.181143 -1
0.794282 0.384613 -0.458414 0.179304 -1
0.509083 0.177143 0.345726 0.177465 -1
0.223902 0.175268 -0.154742 0.175626 -1
-0.403595 0.173387 0.127926 0.173787 -1
0.0550159 0.315836 0.11451 0.171948 -1
0.0444649 0.169812 -0.82979 0.17011 -1
0.239626 0.167888 -0.539342 0.168271 -1
-0.649374 0.166077 -0.83362 0.166432 -1
0.0283296 0.391355 0.470152 0.164593 -1
-0.108572 0.275598 -0.553877 0.162754 -1
-0.311917 0.160657 -0.777951 0.160915 -1
0.514884 0.158762 0.00976633 0.159076 -1
-0.144992 0.156959 0.333868 0.157237 -1
-0.0817723 0.154905 0.655335 0.155399 -1
-0.846504 0.153194 -0.0937631 0.15356 -1
-0.769788 0.15134 -0.518138 0.151721 -1
0.691843 0.288481 0.632275 0.149882 -1
0.185026 0.147503 0.353398 0.148043 -1
0.826851 0.145907 0.853796 0.146204 -1
-0.855728 0.36145 -0.708022 0.144365 -1
-0.631519 0.34036 -0.0140693 0.142526 -1
0.842393 0.140394 0.432797 0.140688 -1
-0.430199 0.138482 -0.207094 0.138849 -1
0.449258 0.136734 0.651797 0.13701 -1
-0.659557 0.268744 -0.280877 0.135171 -1
-0.811366 0.1331 0.866683 0.133332 -1
-0.70912 0.131277 0.154978 0.131493 -1
-0.342465 0.129501 0.542949 0.129654 -1
-0.343246 0.127441 -0.468324 0.127816 -1
-0.728799 0.215419 0.635147 0.125977 -1
-0.580675 0.123861 0.455739 0.124138 -1
-0.304733 0.122145 0.832285 0.122299 -1
-0.877246 0.120311 0.346772 0.12046 -1
0.0212178 0.118043 -0.360338 0.118621 -1
0.200157 0.116375 0.69695 0.116782 -1
0.881105 0.114545 -0.535769 0.114943 -1
0.646036 0.112973 -0.417049 0.113105 -1
-0.133147 0.110725 0.0630407 0.111266 -1
0.736498 0.108847 -0.890871 0.109427 -1
0.470913 0.107461 -0.275734 0.107588 -1
0.831505 0.105634 0.124383 0.105749 -1
-0.596521 0.283966 0.294226 0.10391 -1
0.326946 0.101964 0.87662 0.102071 -1
-0.503114 0.100129 0.720461 0.100232 -1
0.564788 0.0982941 0.861575 0.0983936 -1
-0.903466 0.0964183 0.565655 0.0965547 -1
