0.555893 0.224819 -0.687167 0.186659 -1
0.815379 0.184484 -0.154243 0.18482 -1
0.115504 0.377085 0.817116 0.182982 -1
-0.146197 0.28173 -0.173058 0.181143 -1
0.791958 0.384206 -0.457601 0.179304 -1
0.509391 0.177128 0.345988 0.177465 -1
0.223992 0.17528 -0.155257 0.175626 -1
-0.403617 0.173383 0.127971 0.173787 -1
0.0557659 0.315536 0.114566 0.171948 -1
0.0444731 0.169749 -0.829928 0.17011 -1
0.237578 0.16783 -0.541456 0.168271 -1
-0.649379 0.166077 -0.833616 0.166432 -1
0.0281222 0.391385 0.470239 0.164593 -1
-0.10895 0.275091 -0.55406 0.162754 -1
-0.313261 0.16066 -0.778005 0.160915 -1
0.514504 0.158764 0.0100463 0.159076 -1
-0.144823 0.156911 0.333681 0.157237 -1
-0.0817729 0.154895 0.65547 0.155399 -1
-0.846486 0.153204 -0.0937974 0.15356 -1
-0.769732 0.151335 -0.518138 0.151721 -1
0.692135 0.287936 0.632266 0.149882 -1
0.185316 0.147581 0.353996 0.148043 -1
0.827734 0.145922 0.8538 0.146204 -1
-0.855726 0.361447 -0.70801 0.144365 -1
-0.631498 0.340367 -0.0140786 0.142526 -1
0.842511 0.140396 0.432258 0.140688 -1
-0.430158 0.138434 -0.206853 0.138849 -1
0.449262 0.136696 0.651984 0.13701 -1
-0.659446 0.268721 -0.280875 0.135171 -1
-0.811522 0.133099 0.866679 0.133332 -1
-0.709177 0.131275 0.154999 0.131493 -1
-0.342597 0.129506 0.543407 0.129654 -1
-0.343964 0.127501 -0.468272 0.127816 -1
-0.728854 0.215416 0.635183 0.125977 -1
-0.580685 0.123858 0.45582 0.124138 -1
-0.304734 0.122145 0.832285 0.122299 -1
-0.877246 0.120311 0.346771 0.12046 -1
0.0208834 0.118025 -0.360253 0.118621 -1
0.200222 0.116329 0.696559 0.116782 -1
0.880339 0.114568 -0.534717 0.114943 -1
0.646034 0.112973 -0.417049 0.113105 -1
-0.13298 0.110773 0.0635706 0.111266 -1
0.736338 0.108906 -0.890721 0.109427 -1
0.47108 0.107459 -0.275875 0.107588 -1
0.831984 0.105632 0.124893 0.105749 -1
-0.596553 0.283949 0.294279 0.10391 -1
0.326766 0.101964 0.87662 0.102071 -1
-0.503114 0.100129 0.720461 0.100232 -1
0.564788 0.0982942 0.861575 0.0983936 -1
-0.903476 0.0964241 0.565581 0.0965547 -1
