0.411013 1.23949 -0.307423 0.186659 -1
0.627937 0.286695 -0.232535 0.18482 -1
-0.143554 0.736139 0.379778 0.182982 -1
0.00254504 0.386887 -0.083379 0.181143 -1
0.627674 0.646312 -0.167 0.179304 -1
0.355785 0.907471 0.162437 0.177465 -1
0.291126 0.177805 -0.071283 0.175626 -1
-0.259062 0.17454 0.12933 0.173787 -1
0.105929 0.719275 -0.0739372 0.171948 -1
-0.164567 0.336098 -0.561879 0.17011 -1
0.280333 0.395082 -0.406683 0.168271 -1
-0.43099 0.629075 -0.524223 0.166432 -1
0.0291274 1.305 -0.0060438 0.164593 -1
0.0355048 0.813335 -0.397591 0.162754 -1
-0.258551 1.1942 -0.448596 0.160915 -1
0.357957 0.508186 -0.00436877 0.159076 -1
0.180887 0.49804 0.275666 0.157237 -1
-0.0236704 0.237645 0.806908 0.155399 -1
-0.593207 0.761295 -0.224167 0.15356 -1
-0.776789 0.204872 -0.442033 0.151721 -1
0.421334 1.29928 0.226114 0.149882 -1
0.116626 0.188432 0.330498 0.148043 -1
0.421023 0.756238 0.4699 0.146204 -1
-0.0544872 0.990566 -0.123761 0.144365 -1
-0.435621 1.36772 -0.0640757 0.142526 -1
0.460315 0.362564 0.434203 0.140688 -1
-0.494327 0.148765 -0.136303 0.138849 -1
0.077868 1.12447 0.258751 0.13701 -1
-0.3462 0.626717 -0.0594716 0.135171 -1
-0.432629 0.894324 0.373828 0.133332 -1
-0.609091 0.370141 0.0521975 0.131493 -1
-0.246274 0.432598 0.273118 0.129654 -1
-0.15811 0.142026 -0.313558 0.127816 -1
-0.443727 1.29835 0.267436 0.125977 -1
-0.573417 0.16981 0.375987 0.124138 -1
-0.304932 0.60746 0.624492 0.122299 -1
-0.477979 0.789861 0.0993424 0.12046 -1
0.0871502 0.113929 -0.366979 0.118621 -1
0.0592604 0.334885 0.543572 0.116782 -1
0.511026 0.114665 -0.493932 0.114943 -1
0.414049 0.843204 -0.241402 0.113105 -1
-0.0134634 0.101281 -0.102356 0.111266 -1
0.188329 0.123034 -0.733536 0.109427 -1
0.21205 1.02285 -0.0942665 0.107588 -1
0.879414 0.305969 0.212944 0.105749 -1
-0.0879523 1.40458 -0.29462 0.10391 -1
0.76454 0.966275 0.451695 0.102071 -1
-0.299386 1.16671 -0.0341764 0.100232 -1
0.00189384 0.976401 0.425141 0.0983936 -1
-0.572743 0.596433 0.222934 0.0965547 -1
