0.672959 0.303462 -0.683074 0.186659 -1
0.814976 0.183913 -0.187796 0.18482 -1
0.0469767 0.450881 0.79143 0.182982 -1
-0.127111 0.330442 -0.161046 0.181143 -1
0.819762 0.546541 -0.220298 0.179304 -1
0.504381 0.176913 0.303384 0.177465 -1
0.243522 0.174932 -0.128141 0.175626 -1
-0.397949 0.178031 0.128609 0.173787 -1
0.169247 0.456784 0.0604609 0.171948 -1
0.0023263 0.169197 -0.761672 0.17011 -1
0.332037 0.171987 -0.505787 0.168271 -1
-0.67268 0.176981 -0.822736 0.166432 -1
0.12898 0.559964 0.429737 0.164593 -1
0.0700072 0.367646 -0.440792 0.162754 -1
-0.383292 0.369955 -0.615507 0.160915 -1
0.536785 0.292097 -0.0177359 0.159076 -1
-0.12425 0.229193 0.358334 0.157237 -1
-0.0753764 0.155959 0.672748 0.155399 -1
-0.759025 0.18963 -0.0931867 0.15356 -1
-0.750427 0.155423 -0.479579 0.151721 -1
0.756678 0.54437 0.553057 0.149882 -1
0.185469 0.148343 0.366314 0.148043 -1
0.569905 0.153016 0.808215 0.146204 -1
-0.846147 0.414083 -0.655063 0.144365 -1
-0.709376 0.482811 -0.016633 0.142526 -1
0.791552 0.144005 0.477858 0.140688 -1
-0.41369 0.139396 -0.199635 0.138849 -1
0.347072 0.351367 0.555193 0.13701 -1
-0.50745 0.399965 -0.197122 0.135171 -1
-0.644395 0.161385 0.865679 0.133332 -1
-0.746389 0.131559 0.187417 0.131493 -1
-0.328572 0.130521 0.535397 0.129654 -1
-0.312508 0.127559 -0.455946 0.127816 -1
-0.68445 0.391467 0.638787 0.125977 -1
-0.607577 0.124343 0.405381 0.124138 -1
-0.390284 0.186861 0.792688 0.122299 -1
-0.861004 0.322669 0.307665 0.12046 -1
0.00867146 0.116877 -0.334317 0.118621 -1
0.193441 0.11821 0.66811 0.116782 -1
0.879851 0.114636 -0.556547 0.114943 -1
0.664306 0.120787 -0.444462 0.113105 -1
-0.137696 0.110459 0.030143 0.111266 -1
0.755145 0.108104 -0.891095 0.109427 -1
0.389872 0.41865 -0.318262 0.107588 -1
0.783573 0.165683 0.168676 0.105749 -1
-0.319071 0.44312 0.280833 0.10391 -1
0.511587 0.408234 0.890538 0.102071 -1
-0.484523 0.349289 0.483024 0.100232 -1
0.554522 0.480358 0.704847 0.0983936 -1
-0.811039 0.188794 0.640232 0.0965547 -1
