0.524556 0.470992 -0.587414 0.186659 -1
0.80566 0.182615 -0.187473 0.18482 -1
0.031799 0.472874 0.77838 0.182982 -1
-0.125807 0.348951 -0.167507 0.181143 -1
0.815107 0.556195 -0.214299 0.179304 -1
0.494864 0.177121 0.301857 0.177465 -1
0.246112 0.176135 -0.118367 0.175626 -1
-0.371481 0.171911 0.124111 0.173787 -1
0.176655 0.506592 -0.0321812 0.171948 -1
-0.00515182 0.173229 -0.744435 0.17011 -1
0.333692 0.166959 -0.498599 0.168271 -1
-0.65107 0.198783 -0.828389 0.166432 -1
0.0572913 0.637676 0.32171 0.164593 -1
0.0780673 0.398467 -0.472972 0.162754 -1
-0.404573 0.472218 -0.677295 0.160915 -1
0.523283 0.346677 -0.038825 0.159076 -1
-0.140338 0.332391 0.314514 0.157237 -1
-0.0806682 0.159112 0.670098 0.155399 -1
-0.762059 0.234881 -0.145319 0.15356 -1
-0.711252 0.208376 -0.486437 0.151721 -1
0.748073 0.560036 0.504854 0.149882 -1
0.160976 0.143391 0.363596 0.148043 -1
0.468383 0.14436 0.854331 0.146204 -1
-0.633297 0.580226 -0.481495 0.144365 -1
-0.844993 0.567004 -0.026193 0.142526 -1
0.820338 0.153473 0.511473 0.140688 -1
-0.448201 0.149279 -0.196168 0.138849 -1
0.199527 0.406424 0.494136 0.13701 -1
-0.454965 0.427141 -0.190461 0.135171 -1
-0.648626 0.193452 0.789972 0.133332 -1
-0.678297 0.130647 0.13121 0.131493 -1
-0.336793 0.136784 0.513667 0.129654 -1
-0.260207 0.128501 -0.393232 0.127816 -1
-0.669311 0.445857 0.589951 0.125977 -1
-0.598735 0.127423 0.39556 0.124138 -1
-0.388926 0.236555 0.865777 0.122299 -1
-0.768872 0.358827 0.183569 0.12046 -1
0.0360422 0.118559 -0.317769 0.118621 -1
0.251322 0.168302 0.659734 0.116782 -1
0.865497 0.136876 -0.574259 0.114943 -1
0.641921 0.11673 -0.439672 0.113105 -1
-0.123043 0.109813 -0.0029725 0.111266 -1
0.564021 0.11276 -0.889207 0.109427 -1
0.490101 0.612474 -0.313537 0.107588 -1
0.884149 0.245368 0.086352 0.105749 -1
-0.0552534 0.677538 0.0777936 0.10391 -1
0.588061 0.370946 0.832719 0.102071 -1
-0.471054 0.498368 0.35812 0.100232 -1
0.607155 0.668866 0.796082 0.0983936 -1
-0.874721 0.269217 0.624204 0.0965547 -1
