0.444923 0.49973 -0.519429 0.186659 -1
0.80262 0.180039 -0.187567 0.18482 -1
0.0171518 0.46172 0.811173 0.182982 -1
-0.120085 0.363588 -0.188361 0.181143 -1
0.815075 0.543661 -0.216319 0.179304 -1
0.492288 0.176196 0.302501 0.177465 -1
0.260044 0.175909 -0.112517 0.175626 -1
-0.37608 0.177671 0.117146 0.173787 -1
0.168672 0.521105 -0.0666537 0.171948 -1
-0.0460423 0.196697 -0.781896 0.17011 -1
0.327723 0.171081 -0.488036 0.168271 -1
-0.65191 0.197205 -0.812931 0.166432 -1
0.0457478 0.818496 0.247444 0.164593 -1
0.092906 0.424313 -0.495694 0.162754 -1
-0.325605 0.603452 -0.644872 0.160915 -1
0.522135 0.386318 -0.061538 0.159076 -1
-0.1447 0.347496 0.300104 0.157237 -1
-0.0820469 0.15725 0.669849 0.155399 -1
-0.762014 0.229479 -0.177457 0.15356 -1
-0.688505 0.160577 -0.498808 0.151721 -1
0.614491 0.464173 0.411365 0.149882 -1
0.160628 0.151488 0.391516 0.148043 -1
0.42209 0.160756 0.819384 0.146204 -1
-0.502156 0.645329 -0.394538 0.144365 -1
-0.72439 0.632141 -0.0338864 0.142526 -1
0.841206 0.137325 0.504413 0.140688 -1
-0.479117 0.154882 -0.198519 0.138849 -1
0.224629 0.44804 0.40309 0.13701 -1
-0.438302 0.427286 -0.175934 0.135171 -1
-0.687486 0.27777 0.665313 0.133332 -1
-0.755175 0.161826 0.102043 0.131493 -1
-0.288404 0.140633 0.46363 0.129654 -1
-0.212493 0.125027 -0.361226 0.127816 -1
-0.593757 0.576448 0.48371 0.125977 -1
-0.607653 0.124725 0.400897 0.124138 -1
-0.365073 0.335438 0.767851 0.122299 -1
-0.73288 0.416055 0.138656 0.12046 -1
0.0457719 0.118052 -0.323134 0.118621 -1
0.205507 0.247979 0.63322 0.116782 -1
0.768287 0.169487 -0.564884 0.114943 -1
0.592839 0.2291 -0.418584 0.113105 -1
-0.108008 0.111716 -0.0209993 0.111266 -1
0.470503 0.202118 -0.815306 0.109427 -1
0.498371 0.698507 -0.286773 0.107588 -1
0.799941 0.281905 0.140108 0.105749 -1
0.0479609 0.793574 -0.0358568 0.10391 -1
0.62482 0.411195 0.733796 0.102071 -1
-0.501008 0.538856 0.275509 0.100232 -1
0.524496 0.767083 0.901098 0.0983936 -1
-0.887407 0.194844 0.547154 0.0965547 -1
