0.492774 0.48634 -0.559461 0.186659 -1
0.803768 0.191582 -0.186477 0.18482 -1
0.0235427 0.44836 0.795407 0.182982 -1
-0.121025 0.355872 -0.184564 0.181143 -1
0.80699 0.561177 -0.217556 0.179304 -1
0.493268 0.180481 0.301582 0.177465 -1
0.250441 0.176736 -0.113526 0.175626 -1
-0.371897 0.181039 0.121235 0.173787 -1
0.173533 0.507221 -0.0475718 0.171948 -1
-0.0152619 0.176044 -0.74145 0.17011 -1
0.331477 0.16739 -0.490727 0.168271 -1
-0.650521 0.203943 -0.832881 0.166432 -1
0.0476447 0.668295 0.294223 0.164593 -1
0.0739366 0.37773 -0.485188 0.162754 -1
-0.373003 0.532641 -0.664332 0.160915 -1
0.520438 0.365292 -0.0488146 0.159076 -1
-0.126361 0.367601 0.314413 0.157237 -1
-0.0835203 0.154302 0.66685 0.155399 -1
-0.760087 0.241508 -0.156114 0.15356 -1
-0.702158 0.201204 -0.491383 0.151721 -1
0.694669 0.533649 0.467479 0.149882 -1
0.159498 0.151613 0.378048 0.148043 -1
0.444629 0.152267 0.852332 0.146204 -1
-0.580869 0.614211 -0.446731 0.144365 -1
-0.795944 0.580671 -0.0175415 0.142526 -1
0.845768 0.161151 0.514361 0.140688 -1
-0.458489 0.140916 -0.199049 0.138849 -1
0.191434 0.427597 0.4502 0.13701 -1
-0.442277 0.434194 -0.184339 0.135171 -1
-0.652439 0.240127 0.746874 0.133332 -1
-0.695256 0.140156 0.121511 0.131493 -1
-0.32367 0.137408 0.496938 0.129654 -1
-0.239667 0.134483 -0.378812 0.127816 -1
-0.639106 0.506023 0.547478 0.125977 -1
-0.6023 0.135921 0.397694 0.124138 -1
-0.39458 0.274687 0.820807 0.122299 -1
-0.761662 0.387066 0.149631 0.12046 -1
0.0402425 0.118289 -0.318076 0.118621 -1
0.257679 0.187423 0.664694 0.116782 -1
0.816741 0.114567 -0.559102 0.114943 -1
0.621752 0.168921 -0.431638 0.113105 -1
-0.11534 0.111271 -0.0162803 0.111266 -1
0.524516 0.141229 -0.864393 0.109427 -1
0.530822 0.633955 -0.299954 0.107588 -1
0.850484 0.267933 0.107843 0.105749 -1
-0.00673234 0.711699 0.0267128 0.10391 -1
0.601231 0.381032 0.796481 0.102071 -1
-0.483029 0.522512 0.325094 0.100232 -1
0.575953 0.713964 0.843053 0.0983936 -1
-0.894286 0.247555 0.588515 0.0965547 -1
