0.661858 0.305906 -0.692085 0.186659 -1
0.814799 0.183804 -0.187576 0.18482 -1
0.0423981 0.450685 0.787046 0.182982 -1
-0.126929 0.336826 -0.160497 0.181143 -1
0.819679 0.546308 -0.218549 0.179304 -1
0.503053 0.177644 0.302221 0.177465 -1
0.244382 0.175457 -0.127264 0.175626 -1
-0.393182 0.1779 0.132369 0.173787 -1
0.170753 0.467999 0.0481875 0.171948 -1
0.00121774 0.171106 -0.759046 0.17011 -1
0.333858 0.169371 -0.50609 0.168271 -1
-0.669218 0.186104 -0.822096 0.166432 -1
0.121345 0.579258 0.420093 0.164593 -1
0.0832735 0.37435 -0.435317 0.162754 -1
-0.394821 0.377183 -0.628178 0.160915 -1
0.536689 0.295506 -0.0165259 0.159076 -1
-0.118601 0.230202 0.359858 0.157237 -1
-0.0776736 0.155654 0.671731 0.155399 -1
-0.761552 0.18087 -0.0982773 0.15356 -1
-0.745843 0.152149 -0.474882 0.151721 -1
0.771154 0.552005 0.561031 0.149882 -1
0.175523 0.153841 0.368928 0.148043 -1
0.557793 0.146844 0.807923 0.146204 -1
-0.858295 0.412166 -0.632375 0.144365 -1
-0.708006 0.489622 -0.0274413 0.142526 -1
0.797028 0.144265 0.478956 0.140688 -1
-0.423884 0.138212 -0.194199 0.138849 -1
0.328492 0.372668 0.547324 0.13701 -1
-0.509925 0.39762 -0.191409 0.135171 -1
-0.649747 0.156331 0.863675 0.133332 -1
-0.744545 0.130439 0.185235 0.131493 -1
-0.325366 0.13055 0.533462 0.129654 -1
-0.30866 0.128024 -0.448859 0.127816 -1
-0.683843 0.395039 0.645514 0.125977 -1
-0.609628 0.123381 0.401307 0.124138 -1
-0.373041 0.178143 0.78717 0.122299 -1
-0.869971 0.3204 0.29254 0.12046 -1
0.0122971 0.118483 -0.335126 0.118621 -1
0.195907 0.118133 0.663409 0.116782 -1
0.886436 0.124914 -0.557881 0.114943 -1
0.662765 0.115992 -0.450925 0.113105 -1
-0.135364 0.11066 0.02408 0.111266 -1
0.752189 0.103834 -0.877512 0.109427 -1
0.374351 0.435873 -0.334599 0.107588 -1
0.796726 0.186626 0.156689 0.105749 -1
-0.277949 0.445828 0.277756 0.10391 -1
0.52947 0.418859 0.894195 0.102071 -1
-0.461578 0.344052 0.479681 0.100232 -1
0.575916 0.501896 0.716019 0.0983936 -1
-0.809431 0.159927 0.674195 0.0965547 -1
