0.610658 0.375773 -0.663142 0.186659 -1
0.814585 0.183338 -0.186656 0.18482 -1
0.0352576 0.469054 0.778831 0.182982 -1
-0.125207 0.344636 -0.164281 0.181143 -1
0.819165 0.545328 -0.213704 0.179304 -1
0.497255 0.17545 0.302291 0.177465 -1
0.244747 0.174853 -0.126069 0.175626 -1
-0.38459 0.180974 0.132328 0.173787 -1
0.175574 0.484036 0.0141493 0.171948 -1
-0.00310033 0.169747 -0.748713 0.17011 -1
0.342786 0.168165 -0.504552 0.168271 -1
-0.659237 0.192476 -0.820249 0.166432 -1
0.0989981 0.61696 0.39088 0.164593 -1
0.0949427 0.405828 -0.425755 0.162754 -1
-0.428065 0.377118 -0.664715 0.160915 -1
0.539098 0.290606 -0.012686 0.159076 -1
-0.116415 0.242505 0.371964 0.157237 -1
-0.0822275 0.155232 0.667013 0.155399 -1
-0.767401 0.163288 -0.116074 0.15356 -1
-0.736595 0.163167 -0.473787 0.151721 -1
0.826601 0.560773 0.573757 0.149882 -1
0.175987 0.156956 0.370149 0.148043 -1
0.523982 0.163077 0.823989 0.146204 -1
-0.774097 0.44186 -0.574804 0.144365 -1
-0.773032 0.537858 -0.0288156 0.142526 -1
0.801155 0.147812 0.490303 0.140688 -1
-0.431542 0.141877 -0.196157 0.138849 -1
0.275299 0.412705 0.526255 0.13701 -1
-0.486563 0.412934 -0.192631 0.135171 -1
-0.650722 0.143895 0.848468 0.133332 -1
-0.732815 0.130848 0.169438 0.131493 -1
-0.334176 0.134862 0.523712 0.129654 -1
-0.297555 0.128086 -0.428423 0.127816 -1
-0.682095 0.381116 0.664912 0.125977 -1
-0.61254 0.123088 0.403883 0.124138 -1
-0.33867 0.124613 0.786337 0.122299 -1
-0.846499 0.344295 0.249463 0.12046 -1
0.0203752 0.11846 -0.329093 0.118621 -1
0.205727 0.123568 0.634431 0.116782 -1
0.862995 0.156381 -0.562407 0.114943 -1
0.623072 0.140909 -0.448107 0.113105 -1
-0.128757 0.110363 0.00931398 0.111266 -1
0.703414 0.176224 -0.883533 0.109427 -1
0.379785 0.500643 -0.350334 0.107588 -1
0.834653 0.227595 0.122123 0.105749 -1
-0.186701 0.531353 0.216176 0.10391 -1
0.569856 0.433795 0.890324 0.102071 -1
-0.438613 0.379319 0.447593 0.100232 -1
0.630098 0.550001 0.735666 0.0983936 -1
-0.87148 0.118372 0.7026 0.0965547 -1
