0.541052 0.458816 -0.601923 0.186659 -1
0.807817 0.185706 -0.188921 0.18482 -1
0.0360806 0.479282 0.769561 0.182982 -1
-0.125866 0.353029 -0.166301 0.181143 -1
0.81932 0.5494 -0.212609 0.179304 -1
0.494533 0.179029 0.301449 0.177465 -1
0.243732 0.174768 -0.118352 0.175626 -1
-0.376923 0.171256 0.121661 0.173787 -1
0.178053 0.502823 -0.0244397 0.171948 -1
-0.00305611 0.168097 -0.749867 0.17011 -1
0.33647 0.169076 -0.499392 0.168271 -1
-0.65162 0.193096 -0.822731 0.166432 -1
0.065282 0.640485 0.334962 0.164593 -1
0.0809449 0.408151 -0.46179 0.162754 -1
-0.420959 0.436646 -0.684022 0.160915 -1
0.526989 0.337834 -0.0328532 0.159076 -1
-0.148417 0.306406 0.318266 0.157237 -1
-0.0791879 0.156505 0.671784 0.155399 -1
-0.763083 0.227231 -0.139716 0.15356 -1
-0.715972 0.206624 -0.48387 0.151721 -1
0.775791 0.567418 0.524253 0.149882 -1
0.16517 0.157335 0.368865 0.148043 -1
0.479332 0.150331 0.850363 0.146204 -1
-0.660509 0.558377 -0.499539 0.144365 -1
-0.861326 0.558242 -0.0299617 0.142526 -1
0.807139 0.145278 0.509973 0.140688 -1
-0.443098 0.14744 -0.194947 0.138849 -1
0.209049 0.396521 0.517865 0.13701 -1
-0.461293 0.420008 -0.193341 0.135171 -1
-0.653787 0.161783 0.808034 0.133332 -1
-0.679868 0.133756 0.142239 0.131493 -1
-0.336292 0.144233 0.515591 0.129654 -1
-0.269725 0.128475 -0.399972 0.127816 -1
-0.684988 0.410419 0.611996 0.125977 -1
-0.598358 0.123374 0.395273 0.124138 -1
-0.377619 0.217568 0.879396 0.122299 -1
-0.781268 0.360192 0.195163 0.12046 -1
0.0328563 0.118556 -0.320062 0.118621 -1
0.24273 0.158749 0.653945 0.116782 -1
0.889807 0.147918 -0.58238 0.114943 -1
0.652712 0.119992 -0.440387 0.113105 -1
-0.124739 0.112022 -0.00136007 0.111266 -1
0.590727 0.13402 -0.88812 0.109427 -1
0.468965 0.597115 -0.320587 0.107588 -1
0.89559 0.238935 0.0843858 0.105749 -1
-0.0804376 0.655597 0.104306 0.10391 -1
0.584573 0.392088 0.843755 0.102071 -1
-0.464839 0.481626 0.375262 0.100232 -1
0.623349 0.641249 0.771703 0.0983936 -1
-0.864566 0.274146 0.642727 0.0965547 -1
