0.666775 0.303275 -0.688486 0.186659 -1
0.81488 0.183926 -0.187656 0.18482 -1
0.0443554 0.451315 0.78892 0.182982 -1
-0.127011 0.333984 -0.160568 0.181143 -1
0.81966 0.546245 -0.219248 0.179304 -1
0.503611 0.177792 0.302731 0.177465 -1
0.244069 0.175122 -0.127511 0.175626 -1
-0.39522 0.178502 0.130762 0.173787 -1
0.170109 0.46363 0.0534342 0.171948 -1
0.00195163 0.169362 -0.760808 0.17011 -1
0.33308 0.171127 -0.50596 0.168271 -1
-0.670698 0.182629 -0.82237 0.166432 -1
0.124609 0.571435 0.424216 0.164593 -1
0.0771788 0.369701 -0.437166 0.162754 -1
-0.389892 0.374518 -0.622761 0.160915 -1
0.536555 0.293878 -0.017411 0.159076 -1
-0.121016 0.230216 0.359206 0.157237 -1
-0.0771337 0.153633 0.673147 0.155399 -1
-0.760472 0.185252 -0.0961011 0.15356 -1
-0.747803 0.154186 -0.47689 0.151721 -1
0.764966 0.549166 0.557622 0.149882 -1
0.179774 0.151916 0.36781 0.148043 -1
0.562971 0.15012 0.808048 0.146204 -1
-0.859948 0.412557 -0.641896 0.144365 -1
-0.708283 0.48678 -0.0230004 0.142526 -1
0.794687 0.14464 0.478487 0.140688 -1
-0.421791 0.136898 -0.195257 0.138849 -1
0.336435 0.363987 0.550688 0.13701 -1
-0.506761 0.396213 -0.194805 0.135171 -1
-0.647459 0.159129 0.864531 0.133332 -1
-0.745338 0.131434 0.186213 0.131493 -1
-0.327941 0.128326 0.535473 0.129654 -1
-0.310626 0.127726 -0.451938 0.127816 -1
-0.684103 0.393937 0.642638 0.125977 -1
-0.608928 0.124316 0.402911 0.124138 -1
-0.380412 0.182507 0.789529 0.122299 -1
-0.865829 0.321271 0.298996 0.12046 -1
0.011029 0.117903 -0.335698 0.118621 -1
0.194505 0.115354 0.66737 0.116782 -1
0.883857 0.120772 -0.557306 0.114943 -1
0.664155 0.120726 -0.449429 0.113105 -1
-0.136693 0.110799 0.0269912 0.111266 -1
0.75488 0.107698 -0.893631 0.109427 -1
0.380986 0.428936 -0.327615 0.107588 -1
0.791103 0.178098 0.161813 0.105749 -1
-0.295528 0.445095 0.279072 0.10391 -1
0.521825 0.414742 0.892631 0.102071 -1
-0.471387 0.346928 0.48111 0.100232 -1
0.56677 0.493114 0.711243 0.0983936 -1
-0.810119 0.172905 0.659677 0.0965547 -1
