0.640368 0.334565 -0.683489 0.186659 -1
0.813546 0.184324 -0.18655 0.18482 -1
0.0363737 0.452723 0.783153 0.182982 -1
-0.126248 0.343149 -0.161688 0.181143 -1
0.819849 0.547813 -0.216759 0.179304 -1
0.499959 0.17756 0.30157 0.177465 -1
0.244655 0.175166 -0.126003 0.175626 -1
-0.387443 0.171604 0.136704 0.173787 -1
0.172617 0.477098 0.033003 0.171948 -1
-0.000930076 0.172651 -0.753885 0.17011 -1
0.333854 0.168068 -0.505322 0.168271 -1
-0.664936 0.192614 -0.821303 0.166432 -1
0.111899 0.598351 0.408162 0.164593 -1
0.0998694 0.38692 -0.429734 0.162754 -1
-0.409083 0.381349 -0.643854 0.160915 -1
0.537597 0.297032 -0.0136109 0.159076 -1
-0.119187 0.239479 0.362995 0.157237 -1
-0.0745556 0.153831 0.668396 0.155399 -1
-0.764678 0.162868 -0.104575 0.15356 -1
-0.744049 0.154457 -0.473679 0.151721 -1
0.789113 0.556706 0.570871 0.149882 -1
0.179885 0.145767 0.369746 0.148043 -1
0.543131 0.15061 0.812678 0.146204 -1
-0.819843 0.410091 -0.605435 0.144365 -1
-0.735166 0.513421 -0.0283241 0.142526 -1
0.803341 0.138945 0.480699 0.140688 -1
-0.425974 0.138397 -0.194049 0.138849 -1
0.305506 0.394245 0.537589 0.13701 -1
-0.500944 0.403667 -0.191825 0.135171 -1
-0.650556 0.141401 0.867707 0.133332 -1
-0.744647 0.131083 0.178006 0.131493 -1
-0.334946 0.128487 0.527712 0.129654 -1
-0.303744 0.12816 -0.440067 0.127816 -1
-0.683093 0.394263 0.653836 0.125977 -1
-0.610648 0.126448 0.402234 0.124138 -1
-0.351708 0.160193 0.780343 0.122299 -1
-0.879131 0.325275 0.274788 0.12046 -1
0.0156117 0.118482 -0.332634 0.118621 -1
0.20012 0.124325 0.650976 0.116782 -1
0.877064 0.141749 -0.559814 0.114943 -1
0.649226 0.120499 -0.451358 0.113105 -1
-0.133005 0.11138 0.0175676 0.111266 -1
0.74659 0.13933 -0.890924 0.109427 -1
0.35515 0.452407 -0.35481 0.107588 -1
0.812998 0.207761 0.141859 0.105749 -1
-0.232274 0.462449 0.264153 0.10391 -1
0.551719 0.427288 0.898533 0.102071 -1
-0.433191 0.330409 0.475546 0.100232 -1
0.602267 0.523657 0.729974 0.0983936 -1
-0.824993 0.120012 0.702798 0.0965547 -1
