0.434656 0.51447 -0.510846 0.186659 -1
0.800246 0.182541 -0.18949 0.18482 -1
0.0139711 0.479415 0.795773 0.182982 -1
-0.120456 0.358935 -0.182208 0.181143 -1
0.819608 0.54336 -0.215991 0.179304 -1
0.494413 0.166179 0.304544 0.177465 -1
0.266284 0.173654 -0.113 0.175626 -1
-0.37705 0.171691 0.116186 0.173787 -1
0.170864 0.534155 -0.0677962 0.171948 -1
-0.0527916 0.206653 -0.791448 0.17011 -1
0.324751 0.164519 -0.488291 0.168271 -1
-0.652274 0.188401 -0.810786 0.166432 -1
0.0452735 0.852282 0.235747 0.164593 -1
0.0985475 0.439864 -0.503778 0.162754 -1
-0.313754 0.617387 -0.640006 0.160915 -1
0.52256 0.387805 -0.0647194 0.159076 -1
-0.145051 0.347466 0.286009 0.157237 -1
-0.0803963 0.15638 0.671792 0.155399 -1
-0.773453 0.22586 -0.1927 0.15356 -1
-0.68519 0.147236 -0.495934 0.151721 -1
0.598711 0.462986 0.40077 0.149882 -1
0.158824 0.151781 0.389658 0.148043 -1
0.415051 0.164813 0.80655 0.146204 -1
-0.482474 0.649339 -0.381487 0.144365 -1
-0.706499 0.64124 -0.0379733 0.142526 -1
0.834341 0.145006 0.506772 0.140688 -1
-0.476179 0.154835 -0.193313 0.138849 -1
0.234781 0.457264 0.393598 0.13701 -1
-0.446574 0.426169 -0.174412 0.135171 -1
-0.696249 0.283411 0.644919 0.133332 -1
-0.772406 0.172926 0.104284 0.131493 -1
-0.287169 0.120814 0.468121 0.129654 -1
-0.211425 0.124173 -0.360076 0.127816 -1
-0.582406 0.590363 0.467902 0.125977 -1
-0.606542 0.123926 0.400066 0.124138 -1
-0.357695 0.346858 0.75461 0.122299 -1
-0.725065 0.42315 0.136292 0.12046 -1
0.0476332 0.119178 -0.324594 0.118621 -1
0.192593 0.263083 0.631982 0.116782 -1
0.756171 0.179449 -0.56633 0.114943 -1
0.594149 0.251282 -0.409474 0.113105 -1
-0.105242 0.111628 -0.0220804 0.111266 -1
0.456998 0.213573 -0.803032 0.109427 -1
0.484841 0.723333 -0.280232 0.107588 -1
0.787303 0.281346 0.148175 0.105749 -1
0.060275 0.814223 -0.0503752 0.10391 -1
0.630718 0.414967 0.718122 0.102071 -1
-0.505528 0.538898 0.262703 0.100232 -1
0.500617 0.789179 0.880912 0.0983936 -1
-0.879854 0.177521 0.538736 0.0965547 -1
