0.447854 0.497578 -0.521622 0.186659 -1
0.802677 0.180468 -0.186943 0.18482 -1
0.0179525 0.457028 0.81505 0.182982 -1
-0.120433 0.364587 -0.189759 0.181143 -1
0.814295 0.545297 -0.216695 0.179304 -1
0.491248 0.175276 0.301654 0.177465 -1
0.2586 0.176713 -0.112247 0.175626 -1
-0.375816 0.178877 0.117403 0.173787 -1
0.168862 0.518392 -0.0660807 0.171948 -1
-0.0443432 0.193953 -0.779491 0.17011 -1
0.327767 0.170035 -0.487954 0.168271 -1
-0.651822 0.19866 -0.814187 0.166432 -1
0.0458672 0.809753 0.250388 0.164593 -1
0.0913102 0.420055 -0.493771 0.162754 -1
-0.328589 0.599707 -0.646097 0.160915 -1
0.522029 0.385706 -0.0607371 0.159076 -1
-0.144611 0.347255 0.303652 0.157237 -1
-0.0824624 0.157161 0.66936 0.155399 -1
-0.759134 0.230034 -0.173619 0.15356 -1
-0.689365 0.164202 -0.498341 0.151721 -1
0.619538 0.469614 0.414897 0.149882 -1
0.161027 0.150781 0.390931 0.148043 -1
0.423862 0.159497 0.822614 0.146204 -1
-0.50711 0.644082 -0.397823 0.144365 -1
-0.728894 0.629613 -0.0328575 0.142526 -1
0.844143 0.140359 0.505827 0.140688 -1
-0.480074 0.154233 -0.199809 0.138849 -1
0.222074 0.445481 0.40548 0.13701 -1
-0.435983 0.427603 -0.176332 0.135171 -1
-0.68528 0.276112 0.670447 0.133332 -1
-0.750838 0.158795 0.101479 0.131493 -1
-0.288723 0.146752 0.462579 0.129654 -1
-0.212745 0.125651 -0.361008 0.127816 -1
-0.596612 0.572727 0.487724 0.125977 -1
-0.607316 0.126486 0.400696 0.124138 -1
-0.36693 0.332326 0.771185 0.122299 -1
-0.734847 0.414032 0.139252 0.12046 -1
0.0454209 0.118216 -0.322814 0.118621 -1
0.208791 0.24488 0.635201 0.116782 -1
0.771337 0.166742 -0.56452 0.114943 -1
0.593378 0.224405 -0.420335 0.113105 -1
-0.108704 0.111465 -0.0207272 0.111266 -1
0.473903 0.198998 -0.818396 0.109427 -1
0.501777 0.69202 -0.28842 0.107588 -1
0.803122 0.281737 0.138077 0.105749 -1
0.044861 0.788139 -0.032202 0.10391 -1
0.623335 0.410009 0.737742 0.102071 -1
-0.499876 0.538539 0.27863 0.100232 -1
0.530508 0.761283 0.906179 0.0983936 -1
-0.889309 0.198849 0.549273 0.0965547 -1
