0.648355 0.324403 -0.687453 0.186659 -1
0.813931 0.184174 -0.18693 0.18482 -1
0.038543 0.451454 0.784338 0.182982 -1
-0.126516 0.341433 -0.161204 0.181143 -1
0.819806 0.547245 -0.21738 0.179304 -1
0.501648 0.176425 0.301412 0.177465 -1
0.244541 0.17517 -0.126575 0.175626 -1
-0.389401 0.174298 0.135351 0.173787 -1
0.171948 0.474448 0.0384546 0.171948 -1
-0.00015895 0.172737 -0.755738 0.17011 -1
0.334502 0.166249 -0.505987 0.168271 -1
-0.666473 0.190894 -0.821588 0.166432 -1
0.115291 0.592113 0.412446 0.164593 -1
0.094689 0.381868 -0.43203 0.162754 -1
-0.403963 0.38047 -0.638226 0.160915 -1
0.537271 0.297174 -0.0146575 0.159076 -1
-0.120173 0.237227 0.360626 0.157237 -1
-0.075786 0.152781 0.668574 0.155399 -1
-0.763555 0.170257 -0.102314 0.15356 -1
-0.743711 0.150996 -0.472948 0.151721 -1
0.782633 0.555615 0.567354 0.149882 -1
0.177315 0.149889 0.369581 0.148043 -1
0.548297 0.145627 0.809626 0.146204 -1
-0.833648 0.411724 -0.615107 0.144365 -1
-0.72495 0.505208 -0.0281915 0.142526 -1
0.801371 0.141087 0.479827 0.140688 -1
-0.424616 0.138017 -0.193753 0.138849 -1
0.313759 0.387115 0.541084 0.13701 -1
-0.504824 0.399546 -0.191607 0.135171 -1
-0.653532 0.148435 0.862694 0.133332 -1
-0.744834 0.131704 0.180769 0.131493 -1
-0.329397 0.12825 0.52932 0.129654 -1
-0.305115 0.127308 -0.443163 0.127816 -1
-0.683363 0.39538 0.650848 0.125977 -1
-0.610118 0.125473 0.401776 0.124138 -1
-0.359367 0.167563 0.782794 0.122299 -1
-0.882497 0.320933 0.28166 0.12046 -1
0.0143364 0.118477 -0.333562 0.118621 -1
0.198608 0.122719 0.65544 0.116782 -1
0.880859 0.136182 -0.559114 0.114943 -1
0.656282 0.113372 -0.452235 0.113105 -1
-0.134307 0.110991 0.0202143 0.111266 -1
0.749606 0.121464 -0.883252 0.109427 -1
0.362044 0.447088 -0.347553 0.107588 -1
0.807156 0.20079 0.147183 0.105749 -1
-0.245339 0.445381 0.275316 0.10391 -1
0.543652 0.424841 0.897095 0.102071 -1
-0.443383 0.336232 0.47703 0.100232 -1
0.592881 0.516531 0.724879 0.0983936 -1
-0.809968 0.133807 0.699528 0.0965547 -1
