0.457208 0.495864 -0.528638 0.186659 -1
0.802373 0.18643 -0.185934 0.18482 -1
0.0200308 0.443991 0.823023 0.182982 -1
-0.122222 0.365574 -0.193761 0.181143 -1
0.811958 0.549343 -0.217822 0.179304 -1
0.490613 0.176571 0.300832 0.177465 -1
0.254275 0.178269 -0.111439 0.175626 -1
-0.375028 0.181637 0.118174 0.173787 -1
0.171674 0.514076 -0.0627873 0.171948 -1
-0.0392551 0.185168 -0.77229 0.17011 -1
0.326437 0.163075 -0.487659 0.168271 -1
-0.651561 0.202163 -0.817948 0.166432 -1
0.0462247 0.783004 0.259206 0.164593 -1
0.0865313 0.406735 -0.488013 0.162754 -1
-0.337523 0.587922 -0.649765 0.160915 -1
0.521709 0.383306 -0.0583388 0.159076 -1
-0.143586 0.347589 0.312494 0.157237 -1
-0.0837066 0.156325 0.667896 0.155399 -1
-0.757871 0.233875 -0.168247 0.15356 -1
-0.691938 0.174205 -0.496941 0.151721 -1
0.634651 0.485054 0.425474 0.149882 -1
0.162222 0.148097 0.38918 0.148043 -1
0.429168 0.155159 0.832289 0.146204 -1
-0.521947 0.639779 -0.407662 0.144365 -1
-0.742382 0.621474 -0.0297766 0.142526 -1
0.853059 0.149193 0.510282 0.140688 -1
-0.476072 0.150396 -0.200389 0.138849 -1
0.214421 0.437248 0.412636 0.13701 -1
-0.429203 0.42782 -0.177549 0.135171 -1
-0.678674 0.27058 0.685821 0.133332 -1
-0.736224 0.146334 0.104275 0.131493 -1
-0.291033 0.159875 0.46155 0.129654 -1
-0.216063 0.125261 -0.36274 0.127816 -1
-0.60516 0.561015 0.499744 0.125977 -1
-0.606307 0.130904 0.400092 0.124138 -1
-0.372492 0.322438 0.781167 0.122299 -1
-0.740739 0.407403 0.141034 0.12046 -1
0.0444957 0.118932 -0.321908 0.118621 -1
0.218625 0.235028 0.641134 0.116782 -1
0.78047 0.157953 -0.56343 0.114943 -1
0.599086 0.21495 -0.422609 0.113105 -1
-0.110484 0.110855 -0.0198321 0.111266 -1
0.484084 0.189083 -0.827649 0.109427 -1
0.511977 0.672025 -0.293352 0.107588 -1
0.81265 0.280666 0.131995 0.105749 -1
0.0355779 0.771293 -0.0212571 0.10391 -1
0.618889 0.405886 0.749558 0.102071 -1
-0.496487 0.537021 0.287977 0.100232 -1
0.540886 0.752022 0.895841 0.0983936 -1
-0.895003 0.209988 0.55562 0.0965547 -1
