0.623413 0.355029 -0.67436 0.186659 -1
0.813552 0.184172 -0.186229 0.18482 -1
0.0350489 0.461487 0.78067 0.182982 -1
-0.125683 0.344537 -0.162737 0.181143 -1
0.819735 0.546877 -0.215217 0.179304 -1
0.497315 0.17868 0.301563 0.177465 -1
0.245512 0.174818 -0.125717 0.175626 -1
-0.385647 0.176973 0.134619 0.173787 -1
0.174173 0.481098 0.0217442 0.171948 -1
-0.00255961 0.169183 -0.74997 0.17011 -1
0.338206 0.167904 -0.504594 0.168271 -1
-0.661672 0.193974 -0.820699 0.166432 -1
0.1047 0.609302 0.399068 0.164593 -1
0.0987484 0.399612 -0.42666 0.162754 -1
-0.419955 0.380607 -0.655802 0.160915 -1
0.538222 0.293307 -0.0113809 0.159076 -1
-0.116386 0.240667 0.369115 0.157237 -1
-0.0794861 0.154611 0.671601 0.155399 -1
-0.76788 0.147903 -0.111615 0.15356 -1
-0.741271 0.145316 -0.473171 0.151721 -1
0.806401 0.558617 0.574443 0.149882 -1
0.179775 0.152729 0.368576 0.148043 -1
0.532164 0.158897 0.819156 0.146204 -1
-0.79317 0.425395 -0.58739 0.144365 -1
-0.756853 0.528564 -0.0286056 0.142526 -1
0.802277 0.144804 0.486105 0.140688 -1
-0.429163 0.141557 -0.195256 0.138849 -1
0.287986 0.407088 0.530168 0.13701 -1
-0.492708 0.410122 -0.192287 0.135171 -1
-0.647536 0.129643 0.861034 0.133332 -1
-0.740264 0.131936 0.173519 0.131493 -1
-0.33469 0.127308 0.525589 0.129654 -1
-0.300947 0.12759 -0.433513 0.127816 -1
-0.682521 0.388454 0.66018 0.125977 -1
-0.611773 0.126037 0.403206 0.124138 -1
-0.33614 0.142049 0.776846 0.122299 -1
-0.858807 0.336162 0.259561 0.12046 -1
0.0182333 0.118492 -0.330662 0.118621 -1
0.203332 0.125411 0.6415 0.116782 -1
0.869006 0.151276 -0.561299 0.114943 -1
0.634246 0.133336 -0.449496 0.113105 -1
-0.130564 0.11095 0.0122736 0.111266 -1
0.724063 0.175873 -0.882693 0.109427 -1
0.363444 0.477438 -0.355785 0.107588 -1
0.8254 0.220268 0.130556 0.105749 -1
-0.206173 0.50306 0.236675 0.10391 -1
0.566928 0.432689 0.899186 0.102071 -1
-0.433807 0.355046 0.460846 0.100232 -1
0.623084 0.53547 0.737287 0.0983936 -1
-0.856407 0.0901573 0.70913 0.0965547 -1
