0.680071 0.323438 -0.646438 0.186659 -1
0.815069 0.183903 -0.186663 0.18482 -1
0.0831676 0.415448 0.815854 0.182982 -1
-0.122058 0.317662 -0.156925 0.181143 -1
0.819392 0.544947 -0.232465 0.179304 -1
0.508205 0.176129 0.315994 0.177465 -1
0.242413 0.175094 -0.130006 0.175626 -1
-0.412763 0.173943 0.125499 0.173787 -1
0.148614 0.367985 0.143098 0.171948 -1
0.00236625 0.167726 -0.764954 0.17011 -1
0.334004 0.168621 -0.508551 0.168271 -1
-0.67535 0.174194 -0.831828 0.166432 -1
0.154855 0.441609 0.47194 0.164593 -1
0.0106051 0.353596 -0.489311 0.162754 -1
-0.329802 0.381692 -0.630173 0.160915 -1
0.53626 0.276926 -0.0073938 0.159076 -1
-0.143216 0.164378 0.333604 0.157237 -1
-0.0772903 0.155092 0.666083 0.155399 -1
-0.775128 0.16143 -0.0839761 0.15356 -1
-0.7618 0.152125 -0.488972 0.151721 -1
0.670395 0.426742 0.505529 0.149882 -1
0.181327 0.142518 0.364225 0.148043 -1
0.641919 0.144782 0.804964 0.146204 -1
-0.790711 0.472946 -0.705793 0.144365 -1
-0.69848 0.429623 0.0535259 0.142526 -1
0.787005 0.140914 0.467218 0.140688 -1
-0.40183 0.139922 -0.19082 0.138849 -1
0.41058 0.239136 0.611846 0.13701 -1
-0.524521 0.388792 -0.217949 0.135171 -1
-0.690625 0.132587 0.847801 0.133332 -1
-0.739456 0.13166 0.198541 0.131493 -1
-0.335953 0.129845 0.544838 0.129654 -1
-0.32314 0.135938 -0.474504 0.127816 -1
-0.723657 0.368433 0.636442 0.125977 -1
-0.599074 0.14044 0.422658 0.124138 -1
-0.372914 0.13405 0.799485 0.122299 -1
-0.807019 0.292955 0.382805 0.12046 -1
0.0112462 0.117848 -0.335794 0.118621 -1
0.204771 0.116437 0.693601 0.116782 -1
0.881072 0.116165 -0.549335 0.114943 -1
0.65857 0.111913 -0.433309 0.113105 -1
-0.14118 0.11114 0.0541152 0.111266 -1
0.752183 0.110546 -0.879716 0.109427 -1
0.442731 0.301545 -0.291838 0.107588 -1
0.811655 0.139929 0.184429 0.105749 -1
-0.528143 0.416244 0.25899 0.10391 -1
0.405729 0.27169 0.87775 0.102071 -1
-0.48717 0.322134 0.491451 0.100232 -1
0.594745 0.389005 0.738436 0.0983936 -1
-0.877987 0.0921167 0.53996 0.0965547 -1
