0.674958 0.298142 -0.662686 0.186659 -1
0.815026 0.18412 -0.186089 0.18482 -1
0.118914 0.385297 0.81723 0.182982 -1
-0.130393 0.305348 -0.15639 0.181143 -1
0.819417 0.541523 -0.253115 0.179304 -1
0.50316 0.181777 0.321325 0.177465 -1
0.233231 0.175924 -0.13782 0.175626 -1
-0.423145 0.173491 0.121809 0.173787 -1
0.114416 0.381383 0.115232 0.171948 -1
0.000627593 0.169977 -0.77328 0.17011 -1
0.33365 0.168 -0.520752 0.168271 -1
-0.663454 0.164428 -0.826156 0.166432 -1
0.156282 0.434414 0.47452 0.164593 -1
-0.0222005 0.352411 -0.490072 0.162754 -1
-0.293098 0.341982 -0.674503 0.160915 -1
0.532144 0.257351 -0.00521564 0.159076 -1
-0.144913 0.179543 0.323361 0.157237 -1
-0.0837271 0.155284 0.660006 0.155399 -1
-0.810856 0.169641 -0.105377 0.15356 -1
-0.764734 0.151608 -0.490392 0.151721 -1
0.680831 0.393792 0.532318 0.149882 -1
0.178539 0.147827 0.352375 0.148043 -1
0.71348 0.145825 0.844379 0.146204 -1
-0.774173 0.434318 -0.719198 0.144365 -1
-0.69892 0.383588 0.0987318 0.142526 -1
0.801387 0.140044 0.456604 0.140688 -1
-0.404706 0.138801 -0.188311 0.138849 -1
0.458593 0.149105 0.66911 0.13701 -1
-0.566557 0.354981 -0.239392 0.135171 -1
-0.734885 0.131145 0.854031 0.133332 -1
-0.723375 0.130588 0.201437 0.131493 -1
-0.338328 0.130268 0.531674 0.129654 -1
-0.321023 0.127054 -0.482615 0.127816 -1
-0.749931 0.297691 0.644558 0.125977 -1
-0.589844 0.140043 0.452421 0.124138 -1
-0.369546 0.131203 0.804457 0.122299 -1
-0.79955 0.257306 0.406066 0.12046 -1
0.016291 0.118397 -0.338921 0.118621 -1
0.198733 0.115111 0.718113 0.116782 -1
0.8837 0.114516 -0.546669 0.114943 -1
0.654049 0.113011 -0.426611 0.113105 -1
-0.134845 0.111712 0.06391 0.111266 -1
0.751869 0.107449 -0.87506 0.109427 -1
0.47243 0.261294 -0.269841 0.107588 -1
0.882473 0.109582 0.17372 0.105749 -1
-0.489661 0.351826 0.341237 0.10391 -1
0.351003 0.119047 0.88928 0.102071 -1
-0.48021 0.312049 0.555294 0.100232 -1
0.614893 0.380066 0.779913 0.0983936 -1
-0.888759 0.0955839 0.552787 0.0965547 -1
