0.66167 0.298982 -0.662865 0.186659 -1
0.814906 0.18429 -0.186092 0.18482 -1
0.125458 0.387085 0.81631 0.182982 -1
-0.1312 0.301931 -0.156134 0.181143 -1
0.819953 0.538519 -0.269165 0.179304 -1
0.498639 0.177096 0.327148 0.177465 -1
0.229322 0.175463 -0.140638 0.175626 -1
-0.423731 0.173795 0.121731 0.173787 -1
0.0922043 0.366188 0.115542 0.171948 -1
0.00193448 0.169896 -0.778267 0.17011 -1
0.333591 0.167755 -0.524263 0.168271 -1
-0.661599 0.166751 -0.82173 0.166432 -1
0.153333 0.43422 0.469695 0.164593 -1
-0.0243423 0.346834 -0.497595 0.162754 -1
-0.293884 0.305788 -0.709161 0.160915 -1
0.528256 0.240095 -0.00479282 0.159076 -1
-0.143014 0.154435 0.332659 0.157237 -1
-0.0797061 0.155215 0.659385 0.155399 -1
-0.823026 0.151101 -0.115314 0.15356 -1
-0.764991 0.151521 -0.490524 0.151721 -1
0.683241 0.386788 0.5444 0.149882 -1
0.174616 0.147629 0.346785 0.148043 -1
0.738057 0.146105 0.852726 0.146204 -1
-0.778816 0.443506 -0.710597 0.144365 -1
-0.694929 0.393768 0.101411 0.142526 -1
0.807852 0.140333 0.454084 0.140688 -1
-0.405526 0.138535 -0.188786 0.138849 -1
0.44413 0.184153 0.654418 0.13701 -1
-0.597478 0.321496 -0.257496 0.135171 -1
-0.756424 0.136023 0.866562 0.133332 -1
-0.722037 0.130948 0.200486 0.131493 -1
-0.346858 0.129 0.533578 0.129654 -1
-0.323166 0.127777 -0.483508 0.127816 -1
-0.741596 0.279893 0.643947 0.125977 -1
-0.591085 0.122507 0.45749 0.124138 -1
-0.364378 0.130809 0.804573 0.122299 -1
-0.803583 0.254831 0.40512 0.12046 -1
0.0193685 0.118137 -0.338498 0.118621 -1
0.197313 0.115786 0.714732 0.116782 -1
0.882649 0.114775 -0.546403 0.114943 -1
0.653163 0.112997 -0.426155 0.113105 -1
-0.132985 0.111214 0.0673776 0.111266 -1
0.751789 0.109412 -0.872029 0.109427 -1
0.478181 0.209419 -0.282869 0.107588 -1
0.886353 0.127237 0.17258 0.105749 -1
-0.492695 0.319004 0.355815 0.10391 -1
0.3363 0.120422 0.894582 0.102071 -1
-0.50175 0.293672 0.593566 0.100232 -1
0.618054 0.358608 0.81273 0.0983936 -1
-0.872151 0.0948777 0.576241 0.0965547 -1
