0.667876 0.301373 -0.664096 0.186659 -1
0.815016 0.183966 -0.186013 0.18482 -1
0.122829 0.389875 0.815867 0.182982 -1
-0.13317 0.300897 -0.155789 0.181143 -1
0.819588 0.540011 -0.261318 0.179304 -1
0.501814 0.177798 0.324111 0.177465 -1
0.230372 0.175567 -0.139884 0.175626 -1
-0.425377 0.173517 0.122112 0.173787 -1
0.101974 0.376924 0.115364 0.171948 -1
0.000515789 0.169863 -0.775722 0.17011 -1
0.334547 0.167932 -0.522382 0.168271 -1
-0.663572 0.165741 -0.822273 0.166432 -1
0.155028 0.433452 0.472426 0.164593 -1
-0.0218881 0.347357 -0.495445 0.162754 -1
-0.293838 0.323182 -0.693056 0.160915 -1
0.528779 0.241893 -0.00519307 0.159076 -1
-0.143996 0.167741 0.328742 0.157237 -1
-0.0811771 0.155229 0.659608 0.155399 -1
-0.817478 0.161947 -0.110812 0.15356 -1
-0.764934 0.151516 -0.490492 0.151721 -1
0.683528 0.390175 0.538435 0.149882 -1
0.177084 0.147567 0.348581 0.148043 -1
0.728446 0.146079 0.851959 0.146204 -1
-0.775287 0.442149 -0.714847 0.144365 -1
-0.696911 0.389507 0.101442 0.142526 -1
0.805044 0.140291 0.455003 0.140688 -1
-0.405908 0.138573 -0.18892 0.138849 -1
0.449034 0.173976 0.662779 0.13701 -1
-0.583044 0.338838 -0.249049 0.135171 -1
-0.747778 0.133127 0.864068 0.133332 -1
-0.723293 0.131037 0.202485 0.131493 -1
-0.345482 0.129612 0.532195 0.129654 -1
-0.322746 0.127155 -0.482921 0.127816 -1
-0.748781 0.283331 0.645917 0.125977 -1
-0.590787 0.132772 0.455038 0.124138 -1
-0.368309 0.124098 0.806478 0.122299 -1
-0.803938 0.255928 0.407481 0.12046 -1
0.0199044 0.118263 -0.337593 0.118621 -1
0.196767 0.11693 0.716198 0.116782 -1
0.882848 0.114821 -0.54647 0.114943 -1
0.653458 0.112969 -0.426141 0.113105 -1
-0.133405 0.111189 0.0663921 0.111266 -1
0.75203 0.110057 -0.874052 0.109427 -1
0.475653 0.236351 -0.277143 0.107588 -1
0.895171 0.122539 0.176164 0.105749 -1
-0.482896 0.32905 0.343466 0.10391 -1
0.345106 0.127303 0.886457 0.102071 -1
-0.492282 0.30588 0.576744 0.100232 -1
0.616665 0.372171 0.798306 0.0983936 -1
-0.862963 0.113321 0.562257 0.0965547 -1
