0.679914 0.323068 -0.646219 0.186659 -1
0.815107 0.183959 -0.186682 0.18482 -1
0.0844063 0.414817 0.815063 0.182982 -1
-0.122142 0.317017 -0.156414 0.181143 -1
0.819414 0.544914 -0.232804 0.179304 -1
0.508195 0.176348 0.316259 0.177465 -1
0.242497 0.17534 -0.12997 0.175626 -1
-0.413162 0.17367 0.125274 0.173787 -1
0.148041 0.368137 0.143304 0.171948 -1
0.00214744 0.167702 -0.765576 0.17011 -1
0.333818 0.168408 -0.508502 0.168271 -1
-0.675413 0.173604 -0.831995 0.166432 -1
0.154609 0.442483 0.472372 0.164593 -1
0.00990479 0.354198 -0.489501 0.162754 -1
-0.328718 0.380958 -0.63085 0.160915 -1
0.536237 0.276717 -0.00690085 0.159076 -1
-0.143603 0.161642 0.333044 0.157237 -1
-0.0772717 0.154929 0.666026 0.155399 -1
-0.775855 0.16279 -0.0838301 0.15356 -1
-0.762085 0.151903 -0.489253 0.151721 -1
0.668585 0.422914 0.504419 0.149882 -1
0.181025 0.141727 0.365584 0.148043 -1
0.643612 0.145709 0.805697 0.146204 -1
-0.790346 0.473436 -0.706109 0.144365 -1
-0.698131 0.427412 0.0550626 0.142526 -1
0.78712 0.141151 0.466926 0.140688 -1
-0.402042 0.139777 -0.190691 0.138849 -1
0.412532 0.236756 0.614142 0.13701 -1
-0.525317 0.388362 -0.218259 0.135171 -1
-0.691777 0.130984 0.847342 0.133332 -1
-0.739062 0.131458 0.198742 0.131493 -1
-0.335923 0.129874 0.544831 0.129654 -1
-0.3234 0.135087 -0.474933 0.127816 -1
-0.724795 0.366815 0.636684 0.125977 -1
-0.598997 0.141012 0.423457 0.124138 -1
-0.372232 0.131488 0.799564 0.122299 -1
-0.805713 0.292296 0.383787 0.12046 -1
0.0113465 0.118323 -0.336171 0.118621 -1
0.204541 0.116116 0.69447 0.116782 -1
0.881134 0.116262 -0.5494 0.114943 -1
0.658517 0.112653 -0.433422 0.113105 -1
-0.141203 0.111132 0.0545633 0.111266 -1
0.752165 0.110383 -0.879652 0.109427 -1
0.4425 0.299657 -0.293725 0.107588 -1
0.813228 0.140359 0.184151 0.105749 -1
-0.531761 0.415742 0.257513 0.10391 -1
0.403452 0.267363 0.877624 0.102071 -1
-0.486199 0.322152 0.492683 0.100232 -1
0.595738 0.389681 0.738312 0.0983936 -1
-0.880324 0.0908013 0.540532 0.0965547 -1
