0.677054 0.305394 -0.655695 0.186659 -1
0.814927 0.184355 -0.186372 0.18482 -1
0.113171 0.384324 0.815823 0.182982 -1
-0.126719 0.308136 -0.157174 0.181143 -1
0.819366 0.543037 -0.247466 0.179304 -1
0.500516 0.187944 0.319576 0.177465 -1
0.235318 0.175128 -0.135172 0.175626 -1
-0.420642 0.173689 0.122335 0.173787 -1
0.123431 0.383993 0.119024 0.171948 -1
0.000620469 0.169267 -0.771366 0.17011 -1
0.334813 0.168919 -0.517816 0.168271 -1
-0.662947 0.165273 -0.826243 0.166432 -1
0.157554 0.43725 0.472106 0.164593 -1
-0.0196179 0.354299 -0.487802 0.162754 -1
-0.29483 0.353536 -0.661684 0.160915 -1
0.533026 0.268201 -0.00714527 0.159076 -1
-0.145777 0.18342 0.321242 0.157237 -1
-0.0834997 0.155161 0.662123 0.155399 -1
-0.805644 0.167631 -0.101099 0.15356 -1
-0.764325 0.151655 -0.490115 0.151721 -1
0.676517 0.394894 0.527641 0.149882 -1
0.179721 0.147586 0.356545 0.148043 -1
0.700794 0.146051 0.834965 0.146204 -1
-0.777712 0.449477 -0.717069 0.144365 -1
-0.699209 0.399251 0.0879157 0.142526 -1
0.798481 0.140673 0.459031 0.140688 -1
-0.403517 0.1388 -0.188163 0.138849 -1
0.464494 0.138202 0.667076 0.13701 -1
-0.555808 0.36403 -0.233281 0.135171 -1
-0.725483 0.142409 0.847715 0.133332 -1
-0.725395 0.131258 0.202582 0.131493 -1
-0.337269 0.129352 0.531788 0.129654 -1
-0.321219 0.129904 -0.481225 0.127816 -1
-0.750814 0.307285 0.644474 0.125977 -1
-0.586856 0.13429 0.450599 0.124138 -1
-0.369027 0.139315 0.801097 0.122299 -1
-0.797567 0.267088 0.402129 0.12046 -1
0.0141392 0.117697 -0.339884 0.118621 -1
0.200245 0.116209 0.717017 0.116782 -1
0.88347 0.114657 -0.547429 0.114943 -1
0.654442 0.112656 -0.427375 0.113105 -1
-0.136282 0.110962 0.0623265 0.111266 -1
0.75152 0.109481 -0.874297 0.109427 -1
0.468413 0.275193 -0.266381 0.107588 -1
0.867802 0.114326 0.174497 0.105749 -1
-0.495573 0.363155 0.338374 0.10391 -1
0.348571 0.100061 0.89468 0.102071 -1
-0.476106 0.316068 0.533468 0.100232 -1
0.613278 0.377408 0.766287 0.0983936 -1
-0.902672 0.12802 0.553703 0.0965547 -1
