0.675361 0.298442 -0.662032 0.186659 -1
0.815022 0.184162 -0.186157 0.18482 -1
0.118581 0.384673 0.816695 0.182982 -1
-0.129988 0.305865 -0.15651 0.181143 -1
0.819399 0.541649 -0.25248 0.179304 -1
0.502886 0.182719 0.321144 0.177465 -1
0.233528 0.175574 -0.1378 0.175626 -1
-0.422892 0.173391 0.121819 0.173787 -1
0.115404 0.381604 0.115406 0.171948 -1
0.000625803 0.170157 -0.773083 0.17011 -1
0.333499 0.167719 -0.520645 0.168271 -1
-0.663445 0.16595 -0.825952 0.166432 -1
0.156397 0.43436 0.474664 0.164593 -1
-0.0222363 0.352864 -0.489814 0.162754 -1
-0.292859 0.343452 -0.673126 0.160915 -1
0.532211 0.258797 -0.00549797 0.159076 -1
-0.144982 0.180114 0.323017 0.157237 -1
-0.0839442 0.155228 0.660046 0.155399 -1
-0.810317 0.169806 -0.104934 0.15356 -1
-0.764719 0.151575 -0.490388 0.151721 -1
0.680564 0.393786 0.531906 0.149882 -1
0.178718 0.147716 0.352743 0.148043 -1
0.712246 0.145728 0.843707 0.146204 -1
-0.774415 0.433772 -0.719445 0.144365 -1
-0.69895 0.385513 0.0976121 0.142526 -1
0.801059 0.139939 0.456604 0.140688 -1
-0.404619 0.138945 -0.188191 0.138849 -1
0.459746 0.146631 0.669135 0.13701 -1
-0.565444 0.356221 -0.23876 0.135171 -1
-0.733861 0.131564 0.85342 0.133332 -1
-0.723469 0.130839 0.201697 0.131493 -1
-0.3376 0.129987 0.531634 0.129654 -1
-0.321116 0.126913 -0.482522 0.127816 -1
-0.75007 0.299127 0.644007 0.125977 -1
-0.589767 0.140173 0.452207 0.124138 -1
-0.369492 0.132347 0.804109 0.122299 -1
-0.799115 0.257183 0.405893 0.12046 -1
0.0158077 0.118158 -0.339298 0.118621 -1
0.19874 0.115708 0.717718 0.116782 -1
0.883872 0.114107 -0.546656 0.114943 -1
0.654087 0.113043 -0.426719 0.113105 -1
-0.135044 0.111508 0.0637347 0.111266 -1
0.751659 0.108114 -0.874615 0.109427 -1
0.472167 0.262865 -0.269246 0.107588 -1
0.881289 0.107872 0.173475 0.105749 -1
-0.490213 0.35322 0.341055 0.10391 -1
0.350881 0.116965 0.89105 0.102071 -1
-0.479226 0.31209 0.553546 0.100232 -1
0.614749 0.380248 0.778414 0.0983936 -1
-0.890199 0.0992456 0.552882 0.0965547 -1
