0.664228 0.300768 -0.663372 0.186659 -1
0.815151 0.184167 -0.186142 0.18482 -1
0.124637 0.387808 0.816042 0.182982 -1
-0.131757 0.302278 -0.156076 0.181143 -1
0.819692 0.539233 -0.265797 0.179304 -1
0.498977 0.178385 0.32592 0.177465 -1
0.229514 0.174878 -0.140462 0.175626 -1
-0.424574 0.173253 0.12136 0.173787 -1
0.0962308 0.371401 0.115469 0.171948 -1
0.00140482 0.169236 -0.777557 0.17011 -1
0.333636 0.168014 -0.523728 0.168271 -1
-0.662448 0.166444 -0.821732 0.166432 -1
0.154236 0.433995 0.470342 0.164593 -1
-0.0232711 0.346862 -0.497363 0.162754 -1
-0.293896 0.313609 -0.702473 0.160915 -1
0.528161 0.241179 -0.00522467 0.159076 -1
-0.143553 0.159163 0.331727 0.157237 -1
-0.0804314 0.155096 0.659429 0.155399 -1
-0.82053 0.154856 -0.113318 0.15356 -1
-0.764907 0.151479 -0.490443 0.151721 -1
0.683546 0.388127 0.541819 0.149882 -1
0.176266 0.147511 0.347911 0.148043 -1
0.734984 0.146025 0.854497 0.146204 -1
-0.777362 0.444006 -0.712348 0.144365 -1
-0.695746 0.393194 0.101423 0.142526 -1
0.806856 0.140424 0.454502 0.140688 -1
-0.405868 0.138645 -0.188658 0.138849 -1
0.446151 0.18114 0.657864 0.13701 -1
-0.59146 0.329273 -0.254038 0.135171 -1
-0.752946 0.134112 0.866787 0.133332 -1
-0.722747 0.131954 0.201699 0.131493 -1
-0.34577 0.129603 0.532507 0.129654 -1
-0.3226 0.12747 -0.483169 0.127816 -1
-0.744666 0.282005 0.644734 0.125977 -1
-0.591221 0.125875 0.456245 0.124138 -1
-0.365998 0.129225 0.805358 0.122299 -1
-0.803364 0.255908 0.405327 0.12046 -1
0.018501 0.118117 -0.338748 0.118621 -1
0.196834 0.11606 0.714646 0.116782 -1
0.88272 0.114848 -0.546439 0.114943 -1
0.653292 0.112944 -0.426195 0.113105 -1
-0.133119 0.111025 0.0668522 0.111266 -1
0.751888 0.110544 -0.872862 0.109427 -1
0.477139 0.221307 -0.280509 0.107588 -1
0.890018 0.126465 0.174069 0.105749 -1
-0.488329 0.32355 0.350442 0.10391 -1
0.339929 0.124046 0.891233 0.102071 -1
-0.497848 0.299492 0.586633 0.100232 -1
0.617482 0.364986 0.806785 0.0983936 -1
-0.868123 0.103417 0.570517 0.0965547 -1
