0.681768 0.324362 -0.649086 0.186659 -1
0.815005 0.183978 -0.187425 0.18482 -1
0.0714251 0.422537 0.814768 0.182982 -1
-0.12246 0.323639 -0.160887 0.181143 -1
0.819289 0.545421 -0.22911 0.179304 -1
0.51142 0.179002 0.309048 0.177465 -1
0.24336 0.175346 -0.129645 0.175626 -1
-0.408469 0.17283 0.127901 0.173787 -1
0.15404 0.39423 0.125159 0.171948 -1
0.00338007 0.169855 -0.763906 0.17011 -1
0.33571 0.167127 -0.508934 0.168271 -1
-0.67466 0.176917 -0.830007 0.166432 -1
0.159293 0.437576 0.469311 0.164593 -1
0.0228154 0.360749 -0.478298 0.162754 -1
-0.341606 0.385981 -0.622806 0.160915 -1
0.538312 0.282164 -0.0100176 0.159076 -1
-0.139006 0.190466 0.339699 0.157237 -1
-0.077733 0.154672 0.666358 0.155399 -1
-0.767722 0.152852 -0.0863157 0.15356 -1
-0.758873 0.150708 -0.486117 0.151721 -1
0.690701 0.465492 0.516714 0.149882 -1
0.178547 0.148015 0.361164 0.148043 -1
0.624171 0.149639 0.803734 0.146204 -1
-0.794675 0.462072 -0.702353 0.144365 -1
-0.70228 0.449993 0.0368013 0.142526 -1
0.784616 0.141401 0.467812 0.140688 -1
-0.400029 0.137714 -0.192046 0.138849 -1
0.387019 0.268064 0.58683 0.13701 -1
-0.515866 0.389515 -0.214575 0.135171 -1
-0.677835 0.149867 0.853356 0.133332 -1
-0.743666 0.130895 0.198175 0.131493 -1
-0.334158 0.130148 0.543806 0.129654 -1
-0.320299 0.14151 -0.46983 0.127816 -1
-0.711279 0.382354 0.633806 0.125977 -1
-0.599966 0.127384 0.413249 0.124138 -1
-0.380332 0.158235 0.79862 0.122299 -1
-0.821236 0.296427 0.372112 0.12046 -1
0.0101614 0.118455 -0.335351 0.118621 -1
0.205326 0.116533 0.68612 0.116782 -1
0.880206 0.116247 -0.55051 0.114943 -1
0.660405 0.116186 -0.432966 0.113105 -1
-0.141009 0.111159 0.0492644 0.111266 -1
0.752386 0.10868 -0.880908 0.109427 -1
0.44524 0.318401 -0.271299 0.107588 -1
0.79453 0.129706 0.187458 0.105749 -1
-0.488767 0.417962 0.275074 0.10391 -1
0.430509 0.315091 0.879124 0.102071 -1
-0.49766 0.318885 0.478945 0.100232 -1
0.57787 0.388875 0.736582 0.0983936 -1
-0.850533 0.146045 0.536039 0.0965547 -1
