0.682715 0.319651 -0.652805 0.186659 -1
0.815332 0.184148 -0.186727 0.18482 -1
0.0620865 0.429039 0.805812 0.182982 -1
-0.123743 0.323627 -0.163995 0.181143 -1
0.819364 0.545967 -0.226086 0.179304 -1
0.513453 0.176512 0.302873 0.177465 -1
0.243582 0.175147 -0.129443 0.175626 -1
-0.406979 0.175433 0.12615 0.173787 -1
0.15872 0.41877 0.105556 0.171948 -1
0.00267951 0.170472 -0.762206 0.17011 -1
0.332386 0.169885 -0.507139 0.168271 -1
-0.673997 0.171356 -0.828259 0.166432 -1
0.153491 0.474504 0.460699 0.164593 -1
0.0365848 0.370552 -0.467093 0.162754 -1
-0.353144 0.383205 -0.615776 0.160915 -1
0.537065 0.288324 -0.0140178 0.159076 -1
-0.134963 0.209152 0.345553 0.157237 -1
-0.0769915 0.153803 0.668068 0.155399 -1
-0.763311 0.173755 -0.0869826 0.15356 -1
-0.759169 0.153356 -0.487484 0.151721 -1
0.710203 0.496338 0.527456 0.149882 -1
0.177681 0.148048 0.36337 0.148043 -1
0.608744 0.144397 0.808787 0.146204 -1
-0.798483 0.442077 -0.69905 0.144365 -1
-0.70593 0.463187 0.0207395 0.142526 -1
0.786512 0.141132 0.469889 0.140688 -1
-0.400592 0.137005 -0.193588 0.138849 -1
0.373405 0.273228 0.573913 0.13701 -1
-0.511316 0.39381 -0.210115 0.135171 -1
-0.665552 0.160094 0.858691 0.133332 -1
-0.745427 0.13139 0.19623 0.131493 -1
-0.331853 0.129712 0.541296 0.129654 -1
-0.317168 0.138842 -0.465205 0.127816 -1
-0.699391 0.389356 0.631275 0.125977 -1
-0.599765 0.123919 0.409221 0.124138 -1
-0.387457 0.175094 0.79779 0.122299 -1
-0.834167 0.307218 0.356285 0.12046 -1
0.0103529 0.117997 -0.336856 0.118621 -1
0.207694 0.114178 0.676616 0.116782 -1
0.883387 0.114032 -0.553261 0.114943 -1
0.662331 0.116118 -0.435318 0.113105 -1
-0.14066 0.111117 0.0443251 0.111266 -1
0.752634 0.112768 -0.885985 0.109427 -1
0.439699 0.339833 -0.265814 0.107588 -1
0.778084 0.110336 0.190367 0.105749 -1
-0.450952 0.411133 0.290521 0.10391 -1
0.454306 0.350405 0.880443 0.102071 -1
-0.500961 0.328218 0.465654 0.100232 -1
0.553344 0.41592 0.716238 0.0983936 -1
-0.833465 0.178516 0.55554 0.0965547 -1
