0.677201 0.308836 -0.653541 0.186659 -1
0.814987 0.18419 -0.186379 0.18482 -1
0.109954 0.386797 0.816642 0.182982 -1
-0.12578 0.308953 -0.156656 0.181143 -1
0.819298 0.54329 -0.245451 0.179304 -1
0.499775 0.188759 0.318858 0.177465 -1
0.236712 0.175369 -0.134287 0.175626 -1
-0.419935 0.173305 0.12231 0.173787 -1
0.126234 0.386345 0.122464 0.171948 -1
0.000708361 0.170218 -0.770632 0.17011 -1
0.335789 0.168581 -0.516375 0.168271 -1
-0.664621 0.166349 -0.827648 0.166432 -1
0.158382 0.438703 0.470316 0.164593 -1
-0.0159344 0.353916 -0.487065 0.162754 -1
-0.298714 0.356626 -0.657352 0.160915 -1
0.533973 0.270093 -0.00687162 0.159076 -1
-0.146231 0.183894 0.321094 0.157237 -1
-0.082375 0.154914 0.663291 0.155399 -1
-0.803673 0.164389 -0.0994807 0.15356 -1
-0.764396 0.151396 -0.490349 0.151721 -1
0.674588 0.397253 0.524335 0.149882 -1
0.179243 0.14765 0.35899 0.148043 -1
0.696141 0.145582 0.8315 0.146204 -1
-0.779177 0.455842 -0.715798 0.144365 -1
-0.699318 0.403469 0.0838252 0.142526 -1
0.796774 0.1409 0.460103 0.140688 -1
-0.402161 0.139357 -0.187706 0.138849 -1
0.461012 0.151236 0.663938 0.13701 -1
-0.551743 0.365746 -0.23097 0.135171 -1
-0.721958 0.145498 0.8453 0.133332 -1
-0.726909 0.13133 0.202227 0.131493 -1
-0.337035 0.130701 0.534607 0.129654 -1
-0.320929 0.129065 -0.480193 0.127816 -1
-0.751046 0.30891 0.645652 0.125977 -1
-0.585568 0.129347 0.449926 0.124138 -1
-0.368831 0.140677 0.799827 0.122299 -1
-0.796632 0.271863 0.400798 0.12046 -1
0.0138507 0.117079 -0.339138 0.118621 -1
0.200734 0.116765 0.716113 0.116782 -1
0.883199 0.114828 -0.547688 0.114943 -1
0.654901 0.113078 -0.427989 0.113105 -1
-0.1371 0.11232 0.0618994 0.111266 -1
0.751595 0.109126 -0.875015 0.109427 -1
0.464881 0.28093 -0.268303 0.107588 -1
0.861474 0.120931 0.175617 0.105749 -1
-0.502671 0.372782 0.326564 0.10391 -1
0.346959 0.116638 0.88716 0.102071 -1
-0.474357 0.316571 0.528985 0.100232 -1
0.611377 0.369264 0.766005 0.0983936 -1
-0.903639 0.141109 0.555596 0.0965547 -1
