0.680227 0.32375 -0.646656 0.186659 -1
0.815053 0.183916 -0.186639 0.18482 -1
0.0819297 0.41602 0.816645 0.182982 -1
-0.121981 0.31829 -0.157423 0.181143 -1
0.819376 0.54495 -0.232139 0.179304 -1
0.50828 0.17609 0.31567 0.177465 -1
0.242341 0.174774 -0.130087 0.175626 -1
-0.412364 0.174158 0.125725 0.173787 -1
0.149174 0.368462 0.14269 0.171948 -1
0.00259507 0.168269 -0.764229 0.17011 -1
0.334189 0.168776 -0.508599 0.168271 -1
-0.675287 0.174726 -0.831661 0.166432 -1
0.155101 0.440649 0.471509 0.164593 -1
0.0113151 0.35301 -0.489076 0.162754 -1
-0.330886 0.382367 -0.629496 0.160915 -1
0.536401 0.277161 -0.00787451 0.159076 -1
-0.142829 0.167055 0.334163 0.157237 -1
-0.077321 0.155275 0.66612 0.155399 -1
-0.774401 0.159984 -0.0841219 0.15356 -1
-0.761515 0.15229 -0.488692 0.151721 -1
0.67226 0.430581 0.506556 0.149882 -1
0.181525 0.144302 0.36282 0.148043 -1
0.640224 0.144171 0.80431 0.146204 -1
-0.791075 0.47237 -0.705477 0.144365 -1
-0.698829 0.431775 0.0519903 0.142526 -1
0.786889 0.140592 0.46751 0.140688 -1
-0.401618 0.140009 -0.19095 0.138849 -1
0.408714 0.241652 0.609415 0.13701 -1
-0.523727 0.389164 -0.217639 0.135171 -1
-0.689451 0.134456 0.848311 0.133332 -1
-0.73985 0.131805 0.19834 0.131493 -1
-0.335982 0.12973 0.544845 0.129654 -1
-0.322879 0.136732 -0.474075 0.127816 -1
-0.722521 0.369993 0.6362 0.125977 -1
-0.599154 0.139702 0.421815 0.124138 -1
-0.373595 0.136553 0.799406 0.122299 -1
-0.808324 0.293555 0.381823 0.12046 -1
0.0110968 0.11746 -0.335308 0.118621 -1
0.204887 0.1166 0.692886 0.116782 -1
0.88101 0.115981 -0.549269 0.114943 -1
0.65865 0.111638 -0.433224 0.113105 -1
-0.141165 0.111147 0.053675 0.111266 -1
0.752201 0.110651 -0.87978 0.109427 -1
0.442961 0.303375 -0.289952 0.107588 -1
0.810082 0.139413 0.184707 0.105749 -1
-0.524527 0.416688 0.260467 0.10391 -1
0.408004 0.275957 0.877877 0.102071 -1
-0.488135 0.322161 0.490277 0.100232 -1
0.593554 0.387886 0.738996 0.0983936 -1
-0.875466 0.0973501 0.5396 0.0965547 -1
