0.628787 0.277208 -0.675681 0.186659 -1
0.815164 0.184349 -0.186351 0.18482 -1
0.120353 0.384611 0.817276 0.182982 -1
-0.138805 0.294877 -0.167639 0.181143 -1
0.820733 0.50048 -0.366607 0.179304 -1
0.498224 0.177066 0.336679 0.177465 -1
0.223749 0.175288 -0.14042 0.175626 -1
-0.412839 0.173567 0.120643 0.173787 -1
0.063664 0.343973 0.117829 0.171948 -1
0.0102509 0.169854 -0.793961 0.17011 -1
0.325586 0.167768 -0.525761 0.168271 -1
-0.655488 0.165976 -0.832222 0.166432 -1
0.129035 0.429714 0.472697 0.164593 -1
-0.0570173 0.332489 -0.511358 0.162754 -1
-0.323115 0.172324 -0.795349 0.160915 -1
0.527024 0.183191 0.00139993 0.159076 -1
-0.136886 0.157402 0.336841 0.157237 -1
-0.0760849 0.155147 0.660355 0.155399 -1
-0.839974 0.154105 -0.111891 0.15356 -1
-0.764058 0.151631 -0.507881 0.151721 -1
0.672284 0.329423 0.599501 0.149882 -1
0.172296 0.147538 0.345807 0.148043 -1
0.784786 0.145887 0.853065 0.146204 -1
-0.850242 0.385919 -0.667069 0.144365 -1
-0.661957 0.364032 0.0456749 0.142526 -1
0.830318 0.140445 0.446582 0.140688 -1
-0.415972 0.138242 -0.199273 0.138849 -1
0.45083 0.143414 0.645102 0.13701 -1
-0.633526 0.282201 -0.283102 0.135171 -1
-0.800118 0.133082 0.866235 0.133332 -1
-0.719915 0.131063 0.177714 0.131493 -1
-0.33872 0.129572 0.546711 0.129654 -1
-0.32399 0.127649 -0.484108 0.127816 -1
-0.730784 0.22639 0.634792 0.125977 -1
-0.585467 0.123835 0.457966 0.124138 -1
-0.347768 0.121821 0.816375 0.122299 -1
-0.845447 0.201823 0.386465 0.12046 -1
0.0227818 0.118189 -0.348006 0.118621 -1
0.198863 0.116276 0.709985 0.116782 -1
0.882561 0.114807 -0.546319 0.114943 -1
0.654868 0.112334 -0.427099 0.113105 -1
-0.13433 0.110688 0.0589703 0.111266 -1
0.757593 0.10922 -0.882535 0.109427 -1
0.483164 0.119529 -0.286429 0.107588 -1
0.842376 0.108053 0.142065 0.105749 -1
-0.537962 0.308985 0.333808 0.10391 -1
0.339947 0.103033 0.879549 0.102071 -1
-0.506946 0.213434 0.689808 0.100232 -1
0.554377 0.255963 0.840845 0.0983936 -1
-0.903414 0.0966451 0.567022 0.0965547 -1
