0.644773 0.289122 -0.671144 0.186659 -1
0.815156 0.184066 -0.185728 0.18482 -1
0.127731 0.386973 0.81614 0.182982 -1
-0.135599 0.298499 -0.157831 0.181143 -1
0.820297 0.53192 -0.291608 0.179304 -1
0.499783 0.177023 0.329327 0.177465 -1
0.22902 0.175379 -0.141291 0.175626 -1
-0.42002 0.173604 0.121348 0.173787 -1
0.0740835 0.354624 0.120734 0.171948 -1
0.00413597 0.169933 -0.78302 0.17011 -1
0.333769 0.167934 -0.525772 0.168271 -1
-0.657933 0.165102 -0.820371 0.166432 -1
0.147744 0.432665 0.47229 0.164593 -1
-0.0306068 0.343816 -0.502016 0.162754 -1
-0.315913 0.27019 -0.744767 0.160915 -1
0.528488 0.22747 -0.00174259 0.159076 -1
-0.142714 0.161229 0.331025 0.157237 -1
-0.0776869 0.155144 0.659146 0.155399 -1
-0.84742 0.151452 -0.12803 0.15356 -1
-0.766207 0.150958 -0.493853 0.151721 -1
0.676681 0.36937 0.56414 0.149882 -1
0.17053 0.147568 0.34561 0.148043 -1
0.758984 0.146442 0.851943 0.146204 -1
-0.78814 0.419722 -0.698534 0.144365 -1
-0.688754 0.385063 0.0972828 0.142526 -1
0.815033 0.140363 0.450978 0.140688 -1
-0.410636 0.138282 -0.193024 0.138849 -1
0.433107 0.173408 0.636586 0.13701 -1
-0.62744 0.283252 -0.276906 0.135171 -1
-0.7794 0.132697 0.867795 0.133332 -1
-0.719331 0.130956 0.194972 0.131493 -1
-0.344248 0.130881 0.541247 0.129654 -1
-0.323938 0.127641 -0.484036 0.127816 -1
-0.74104 0.254464 0.642739 0.125977 -1
-0.583736 0.126815 0.458464 0.124138 -1
-0.356633 0.12433 0.801562 0.122299 -1
-0.807357 0.233536 0.407165 0.12046 -1
0.0184384 0.11827 -0.341407 0.118621 -1
0.198006 0.115845 0.712078 0.116782 -1
0.882581 0.114802 -0.546326 0.114943 -1
0.654148 0.113812 -0.427377 0.113105 -1
-0.133516 0.111033 0.0672619 0.111266 -1
0.754678 0.108578 -0.877435 0.109427 -1
0.476538 0.120427 -0.291039 0.107588 -1
0.863775 0.106518 0.163408 0.105749 -1
-0.513703 0.32055 0.358075 0.10391 -1
0.328584 0.105646 0.887866 0.102071 -1
-0.511733 0.264117 0.63995 0.100232 -1
0.599664 0.340809 0.810635 0.0983936 -1
-0.904436 0.111468 0.573663 0.0965547 -1
