0.629864 0.278048 -0.674425 0.186659 -1
0.815141 0.184306 -0.186428 0.18482 -1
0.121521 0.384572 0.817178 0.182982 -1
-0.138101 0.294953 -0.166514 0.181143 -1
0.820667 0.505116 -0.358147 0.179304 -1
0.497803 0.177138 0.335831 0.177465 -1
0.223696 0.175208 -0.140158 0.175626 -1
-0.41371 0.173294 0.120942 0.173787 -1
0.064733 0.345038 0.117956 0.171948 -1
0.00944192 0.169547 -0.792645 0.17011 -1
0.326526 0.168196 -0.525775 0.168271 -1
-0.655385 0.16618 -0.830581 0.166432 -1
0.131242 0.430066 0.472769 0.164593 -1
-0.0536172 0.334339 -0.510329 0.162754 -1
-0.322215 0.161348 -0.791861 0.160915 -1
0.526825 0.188758 0.000832607 0.159076 -1
-0.137114 0.156385 0.336323 0.157237 -1
-0.0763261 0.155155 0.660158 0.155399 -1
-0.839768 0.154039 -0.113693 0.15356 -1
-0.763612 0.151027 -0.50703 0.151721 -1
0.668728 0.332763 0.597056 0.149882 -1
0.172181 0.147594 0.345633 0.148043 -1
0.783617 0.146124 0.853644 0.146204 -1
-0.841825 0.38857 -0.666889 0.144365 -1
-0.665065 0.367636 0.0517621 0.142526 -1
0.82905 0.140444 0.446806 0.140688 -1
-0.415386 0.138678 -0.199129 0.138849 -1
0.448804 0.142483 0.647417 0.13701 -1
-0.631184 0.284387 -0.284561 0.135171 -1
-0.798823 0.13323 0.866264 0.133332 -1
-0.719966 0.130963 0.178512 0.131493 -1
-0.338634 0.129379 0.546864 0.129654 -1
-0.323981 0.127648 -0.484103 0.127816 -1
-0.732221 0.227817 0.632825 0.125977 -1
-0.586245 0.123822 0.457929 0.124138 -1
-0.349974 0.123068 0.814193 0.122299 -1
-0.841319 0.204043 0.388384 0.12046 -1
0.0223575 0.118123 -0.34747 0.118621 -1
0.199105 0.116055 0.710145 0.116782 -1
0.882564 0.114808 -0.546318 0.114943 -1
0.655031 0.112158 -0.426855 0.113105 -1
-0.134316 0.110766 0.0602254 0.111266 -1
0.757034 0.109267 -0.881683 0.109427 -1
0.483638 0.127207 -0.287755 0.107588 -1
0.845464 0.109578 0.143425 0.105749 -1
-0.53547 0.309811 0.335324 0.10391 -1
0.337893 0.103496 0.879783 0.102071 -1
-0.50831 0.21934 0.689277 0.100232 -1
0.554395 0.256796 0.832611 0.0983936 -1
-0.90298 0.0960864 0.56707 0.0965547 -1
