0.632161 0.285253 -0.673416 0.186659 -1
0.815207 0.184167 -0.186277 0.18482 -1
0.127452 0.387763 0.815732 0.182982 -1
-0.136098 0.296306 -0.160173 0.181143 -1
0.820647 0.525916 -0.310714 0.179304 -1
0.497451 0.176748 0.331204 0.177465 -1
0.228 0.175227 -0.141565 0.175626 -1
-0.418 0.173402 0.121273 0.173787 -1
0.0693858 0.3502 0.122148 0.171948 -1
0.00607865 0.169506 -0.786036 0.17011 -1
0.332493 0.16693 -0.525889 0.168271 -1
-0.658529 0.165654 -0.821172 0.166432 -1
0.142693 0.431669 0.470997 0.164593 -1
-0.036363 0.341875 -0.504049 0.162754 -1
-0.334594 0.231159 -0.766652 0.160915 -1
0.527961 0.224205 -0.00150817 0.159076 -1
-0.140475 0.160236 0.333162 0.157237 -1
-0.0772617 0.155157 0.659112 0.155399 -1
-0.837837 0.156645 -0.125986 0.15356 -1
-0.764574 0.15233 -0.495722 0.151721 -1
0.667793 0.351322 0.578496 0.149882 -1
0.17151 0.146972 0.346345 0.148043 -1
0.769622 0.145982 0.850249 0.146204 -1
-0.798261 0.40876 -0.68267 0.144365 -1
-0.682344 0.382288 0.0854977 0.142526 -1
0.819995 0.140378 0.449292 0.140688 -1
-0.412178 0.138721 -0.19553 0.138849 -1
0.440774 0.148575 0.639864 0.13701 -1
-0.625887 0.285662 -0.283676 0.135171 -1
-0.787267 0.133108 0.865668 0.133332 -1
-0.719626 0.13106 0.187669 0.131493 -1
-0.34036 0.129925 0.545574 0.129654 -1
-0.323973 0.12763 -0.484065 0.127816 -1
-0.740687 0.248106 0.637546 0.125977 -1
-0.585887 0.123846 0.456828 0.124138 -1
-0.358149 0.123686 0.804879 0.122299 -1
-0.817382 0.227148 0.401633 0.12046 -1
0.0193254 0.117843 -0.343588 0.118621 -1
0.197989 0.116295 0.710852 0.116782 -1
0.882555 0.114807 -0.546323 0.114943 -1
0.654722 0.112727 -0.427056 0.113105 -1
-0.134035 0.110756 0.0655223 0.111266 -1
0.755133 0.109267 -0.878336 0.109427 -1
0.466804 0.132111 -0.287562 0.107588 -1
0.85837 0.114759 0.156066 0.105749 -1
-0.522204 0.318593 0.350505 0.10391 -1
0.335568 0.10498 0.885996 0.102071 -1
-0.508823 0.241409 0.674595 0.100232 -1
0.585418 0.308278 0.81117 0.0983936 -1
-0.901232 0.100181 0.56741 0.0965547 -1
