0.631993 0.28204 -0.675925 0.186659 -1
0.815247 0.184082 -0.186486 0.18482 -1
0.124822 0.386694 0.816225 0.182982 -1
-0.137621 0.295465 -0.164245 0.181143 -1
0.820704 0.514502 -0.33877 0.179304 -1
0.496439 0.177216 0.333589 0.177465 -1
0.223981 0.175235 -0.139931 0.175626 -1
-0.415479 0.173181 0.120975 0.173787 -1
0.0664751 0.345549 0.119129 0.171948 -1
0.00746983 0.169551 -0.79018 0.17011 -1
0.32882 0.168321 -0.525993 0.168271 -1
-0.655975 0.166206 -0.826594 0.166432 -1
0.136034 0.430533 0.472095 0.164593 -1
-0.0459062 0.337258 -0.507627 0.162754 -1
-0.328461 0.179476 -0.783908 0.160915 -1
0.526838 0.20183 -0.000502821 0.159076 -1
-0.138902 0.157909 0.336666 0.157237 -1
-0.0767331 0.155157 0.659676 0.155399 -1
-0.839093 0.155004 -0.118211 0.15356 -1
-0.763936 0.151407 -0.502405 0.151721 -1
0.659917 0.334064 0.591074 0.149882 -1
0.172585 0.147038 0.345892 0.148043 -1
0.779138 0.145798 0.852701 0.146204 -1
-0.820973 0.392161 -0.667821 0.144365 -1
-0.67223 0.375032 0.0656448 0.142526 -1
0.825962 0.140533 0.447462 0.140688 -1
-0.413478 0.138257 -0.198637 0.138849 -1
0.44752 0.137163 0.650033 0.13701 -1
-0.626915 0.283833 -0.288547 0.135171 -1
-0.795032 0.133063 0.865964 0.133332 -1
-0.719882 0.130938 0.18078 0.131493 -1
-0.338361 0.129658 0.547376 0.129654 -1
-0.323982 0.127653 -0.484096 0.127816 -1
-0.737201 0.227298 0.630349 0.125977 -1
-0.588627 0.123505 0.457459 0.124138 -1
-0.353227 0.123387 0.81 0.122299 -1
-0.830952 0.20485 0.394158 0.12046 -1
0.0213802 0.117743 -0.345396 0.118621 -1
0.198238 0.116393 0.709908 0.116782 -1
0.882562 0.114807 -0.546319 0.114943 -1
0.653781 0.113005 -0.427428 0.113105 -1
-0.134302 0.111003 0.0624684 0.111266 -1
0.756486 0.108898 -0.880676 0.109427 -1
0.478479 0.138722 -0.288207 0.107588 -1
0.85304 0.104807 0.146777 0.105749 -1
-0.528159 0.307684 0.337149 0.10391 -1
0.334998 0.103921 0.881055 0.102071 -1
-0.516652 0.228922 0.687193 0.100232 -1
0.556194 0.25991 0.817242 0.0983936 -1
-0.903673 0.095128 0.566318 0.0965547 -1
