0.629054 0.2773 -0.675338 0.186659 -1
0.815201 0.184347 -0.18634 0.18482 -1
0.120593 0.384683 0.817187 0.182982 -1
-0.138684 0.294877 -0.16736 0.181143 -1
0.820716 0.501517 -0.364844 0.179304 -1
0.49817 0.177029 0.336521 0.177465 -1
0.223754 0.1752 -0.14037 0.175626 -1
-0.413001 0.173468 0.120691 0.173787 -1
0.0639013 0.344292 0.117868 0.171948 -1
0.0101346 0.169929 -0.793636 0.17011 -1
0.32578 0.167788 -0.525767 0.168271 -1
-0.655506 0.165886 -0.831882 0.166432 -1
0.129541 0.429792 0.472825 0.164593 -1
-0.0562954 0.332805 -0.511174 0.162754 -1
-0.322928 0.17024 -0.794624 0.160915 -1
0.526982 0.184474 0.00129008 0.159076 -1
-0.136903 0.157057 0.336704 0.157237 -1
-0.0761444 0.155148 0.660302 0.155399 -1
-0.839931 0.154243 -0.112266 0.15356 -1
-0.764028 0.151884 -0.507809 0.151721 -1
0.67157 0.330205 0.598984 0.149882 -1
0.172237 0.147593 0.345744 0.148043 -1
0.784493 0.145961 0.853169 0.146204 -1
-0.848441 0.386343 -0.666948 0.144365 -1
-0.662627 0.36472 0.0469955 0.142526 -1
0.830035 0.140487 0.446611 0.140688 -1
-0.415861 0.138318 -0.199292 0.138849 -1
0.450409 0.143419 0.645583 0.13701 -1
-0.633003 0.282718 -0.283377 0.135171 -1
-0.79984 0.133102 0.866227 0.133332 -1
-0.719902 0.13115 0.177833 0.131493 -1
-0.338698 0.129531 0.546735 0.129654 -1
-0.323989 0.127646 -0.484108 0.127816 -1
-0.731083 0.226819 0.634383 0.125977 -1
-0.585623 0.123913 0.457917 0.124138 -1
-0.348403 0.122293 0.815893 0.122299 -1
-0.844626 0.202358 0.386898 0.12046 -1
0.0227063 0.118124 -0.347835 0.118621 -1
0.19879 0.116236 0.709886 0.116782 -1
0.882561 0.114807 -0.546319 0.114943 -1
0.654702 0.11238 -0.427048 0.113105 -1
-0.134332 0.110711 0.0592556 0.111266 -1
0.757469 0.109243 -0.882392 0.109427 -1
0.483262 0.121259 -0.286705 0.107588 -1
0.843019 0.108503 0.142348 0.105749 -1
-0.537462 0.308827 0.334209 0.10391 -1
0.33952 0.103262 0.879597 0.102071 -1
-0.506757 0.214611 0.689777 0.100232 -1
0.554381 0.256269 0.839132 0.0983936 -1
-0.903628 0.0969728 0.566967 0.0965547 -1
