0.631638 0.281464 -0.675468 0.186659 -1
0.815294 0.183987 -0.18659 0.18482 -1
0.124232 0.3861 0.81652 0.182982 -1
-0.137381 0.295433 -0.164921 0.181143 -1
0.820697 0.512578 -0.342602 0.179304 -1
0.496724 0.176936 0.333989 0.177465 -1
0.223663 0.175139 -0.139846 0.175626 -1
-0.414985 0.173269 0.120877 0.173787 -1
0.0660845 0.345005 0.118837 0.171948 -1
0.00752231 0.169622 -0.790668 0.17011 -1
0.328323 0.167916 -0.525972 0.168271 -1
-0.654933 0.165723 -0.827393 0.166432 -1
0.135049 0.430283 0.47185 0.164593 -1
-0.0474824 0.336683 -0.50842 0.162754 -1
-0.326365 0.172267 -0.785548 0.160915 -1
0.5268 0.198854 -0.000408408 0.159076 -1
-0.13852 0.158523 0.33658 0.157237 -1
-0.0765384 0.155154 0.659853 0.155399 -1
-0.839262 0.154312 -0.117249 0.15356 -1
-0.763665 0.152427 -0.503633 0.151721 -1
0.661763 0.334766 0.592327 0.149882 -1
0.172602 0.147062 0.346038 0.148043 -1
0.780382 0.146158 0.853175 0.146204 -1
-0.8255 0.391532 -0.667363 0.144365 -1
-0.670842 0.373688 0.0629106 0.142526 -1
0.826678 0.140419 0.447221 0.140688 -1
-0.413745 0.138429 -0.19848 0.138849 -1
0.445314 0.133641 0.650782 0.13701 -1
-0.627446 0.284853 -0.287739 0.135171 -1
-0.795765 0.133268 0.865921 0.133332 -1
-0.71967 0.131106 0.179892 0.131493 -1
-0.338405 0.129366 0.54723 0.129654 -1
-0.323982 0.12765 -0.484101 0.127816 -1
-0.735226 0.227085 0.630253 0.125977 -1
-0.588541 0.123775 0.457127 0.124138 -1
-0.352642 0.122404 0.810615 0.122299 -1
-0.833084 0.204937 0.392435 0.12046 -1
0.0217136 0.117909 -0.345803 0.118621 -1
0.198396 0.116323 0.709833 0.116782 -1
0.882564 0.114807 -0.546317 0.114943 -1
0.653704 0.112917 -0.427451 0.113105 -1
-0.13433 0.111067 0.0619339 0.111266 -1
0.756551 0.108907 -0.880839 0.109427 -1
0.480088 0.137161 -0.288349 0.107588 -1
0.851457 0.106896 0.146065 0.105749 -1
-0.53005 0.308526 0.337352 0.10391 -1
0.334495 0.102822 0.880326 0.102071 -1
-0.514904 0.227719 0.68763 0.100232 -1
0.555258 0.25753 0.819163 0.0983936 -1
-0.904163 0.0965569 0.56739 0.0965547 -1
