0.65974 0.296905 -0.662482 0.186659 -1
0.815151 0.184197 -0.186299 0.18482 -1
0.125897 0.387401 0.816969 0.182982 -1
-0.131116 0.301427 -0.15602 0.181143 -1
0.820057 0.537779 -0.27164 0.179304 -1
0.498799 0.176379 0.32783 0.177465 -1
0.229378 0.175174 -0.14097 0.175626 -1
-0.423137 0.173483 0.121953 0.173787 -1
0.0890759 0.361832 0.115794 0.171948 -1
0.0021767 0.169561 -0.778841 0.17011 -1
0.333842 0.168081 -0.524371 0.168271 -1
-0.660958 0.166177 -0.821728 0.166432 -1
0.152485 0.43395 0.469336 0.164593 -1
-0.0250248 0.346506 -0.497368 0.162754 -1
-0.293952 0.299269 -0.714192 0.160915 -1
0.528103 0.238904 -0.00433718 0.159076 -1
-0.143332 0.157277 0.332783 0.157237 -1
-0.0792832 0.155147 0.659354 0.155399 -1
-0.826004 0.154251 -0.117551 0.15356 -1
-0.765013 0.151443 -0.490551 0.151721 -1
0.682937 0.385275 0.546458 0.149882 -1
0.17375 0.147737 0.34594 0.148043 -1
0.740481 0.145751 0.851569 0.146204 -1
-0.779914 0.4424 -0.709275 0.144365 -1
-0.694312 0.393318 0.101401 0.142526 -1
0.808527 0.140511 0.453615 0.140688 -1
-0.40569 0.138418 -0.188853 0.138849 -1
0.442604 0.185333 0.651818 0.13701 -1
-0.602172 0.315314 -0.260124 0.135171 -1
-0.759057 0.136413 0.866341 0.133332 -1
-0.72156 0.131257 0.19969 0.131493 -1
-0.347465 0.130125 0.533558 0.129654 -1
-0.323523 0.127657 -0.483729 0.127816 -1
-0.739279 0.277571 0.643354 0.125977 -1
-0.589836 0.125915 0.459685 0.124138 -1
-0.363155 0.130946 0.803981 0.122299 -1
-0.803762 0.253296 0.405002 0.12046 -1
0.0190063 0.118021 -0.338638 0.118621 -1
0.196984 0.115457 0.713809 0.116782 -1
0.882594 0.114831 -0.54641 0.114943 -1
0.653099 0.112959 -0.426192 0.113105 -1
-0.132866 0.111057 0.0675989 0.111266 -1
0.751855 0.108927 -0.871885 0.109427 -1
0.478967 0.199719 -0.284651 0.107588 -1
0.883587 0.126935 0.171456 0.105749 -1
-0.49599 0.314844 0.35987 0.10391 -1
0.333561 0.116959 0.897109 0.102071 -1
-0.504695 0.288551 0.598798 0.100232 -1
0.618389 0.353188 0.817077 0.0983936 -1
-0.876036 0.0971613 0.577066 0.0965547 -1
