0.640154 0.287688 -0.672858 0.186659 -1
0.815185 0.184312 -0.186 0.18482 -1
0.127336 0.387303 0.818003 0.182982 -1
-0.135941 0.297225 -0.1585 0.181143 -1
0.820574 0.530383 -0.298147 0.179304 -1
0.498961 0.177107 0.329846 0.177465 -1
0.228507 0.175197 -0.141234 0.175626 -1
-0.419263 0.173371 0.121338 0.173787 -1
0.0717565 0.353651 0.121246 0.171948 -1
0.00541647 0.169537 -0.784755 0.17011 -1
0.333705 0.168024 -0.526036 0.168271 -1
-0.658404 0.166994 -0.820881 0.166432 -1
0.14604 0.432613 0.471846 0.164593 -1
-0.0325816 0.343421 -0.502624 0.162754 -1
-0.322553 0.258355 -0.752545 0.160915 -1
0.527991 0.228347 -0.00132021 0.159076 -1
-0.141412 0.156205 0.331138 0.157237 -1
-0.0774828 0.155162 0.659132 0.155399 -1
-0.839164 0.155272 -0.129191 0.15356 -1
-0.765619 0.154129 -0.494505 0.151721 -1
0.673989 0.363099 0.56956 0.149882 -1
0.170478 0.147979 0.345913 0.148043 -1
0.763693 0.145867 0.851903 0.146204 -1
-0.791326 0.416629 -0.692796 0.144365 -1
-0.686702 0.384866 0.0937698 0.142526 -1
0.816911 0.140163 0.450349 0.140688 -1
-0.411242 0.138525 -0.193532 0.138849 -1
0.435242 0.166314 0.638224 0.13701 -1
-0.628164 0.284406 -0.276863 0.135171 -1
-0.782173 0.13304 0.866461 0.133332 -1
-0.719333 0.131292 0.19196 0.131493 -1
-0.342567 0.129219 0.543849 0.129654 -1
-0.323928 0.12762 -0.484031 0.127816 -1
-0.742546 0.253143 0.639899 0.125977 -1
-0.583502 0.124433 0.456016 0.124138 -1
-0.357172 0.126668 0.802741 0.122299 -1
-0.810281 0.23237 0.403557 0.12046 -1
0.0182414 0.118092 -0.342285 0.118621 -1
0.1978 0.116122 0.712826 0.116782 -1
0.882556 0.114803 -0.546328 0.114943 -1
0.65435 0.112628 -0.427278 0.113105 -1
-0.13404 0.110721 0.0665466 0.111266 -1
0.754931 0.108598 -0.877958 0.109427 -1
0.472462 0.104223 -0.289855 0.107588 -1
0.860852 0.107885 0.160932 0.105749 -1
-0.517901 0.318764 0.356171 0.10391 -1
0.331066 0.107976 0.887202 0.102071 -1
-0.510698 0.258084 0.652264 0.100232 -1
0.594619 0.332328 0.808813 0.0983936 -1
-0.898765 0.110389 0.573596 0.0965547 -1
