0.444356 0.692589 -0.355436 0.186659 -1
0.705875 0.180505 -0.218396 0.18482 -1
-0.073252 0.641213 0.578985 0.182982 -1
-0.089755 0.400252 -0.0806283 0.181143 -1
0.806128 0.579729 -0.209981 0.179304 -1
0.47044 0.427295 0.2993 0.177465 -1
0.284711 0.176177 -0.0917549 0.175626 -1
-0.341892 0.170879 0.0830932 0.173787 -1
0.164259 0.640786 -0.0634236 0.171948 -1
-0.11129 0.160631 -0.751877 0.17011 -1
0.352594 0.182565 -0.434505 0.168271 -1
-0.550513 0.45728 -0.701542 0.166432 -1
0.0391308 1.15391 0.0842643 0.164593 -1
-0.0164432 0.405988 -0.556176 0.162754 -1
-0.238379 0.926398 -0.544171 0.160915 -1
0.465236 0.45777 -0.0636647 0.159076 -1
0.0244373 0.442498 0.24447 0.157237 -1
-0.0508699 0.151292 0.702087 0.155399 -1
-0.850506 0.345528 -0.123129 0.15356 -1
-0.77357 0.225769 -0.4605 0.151721 -1
0.466024 0.894372 0.279217 0.149882 -1
0.153229 0.166334 0.346168 0.148043 -1
0.392152 0.233431 0.586004 0.146204 -1
-0.238117 0.683361 -0.252446 0.144365 -1
-0.491422 0.811181 -0.0612741 0.142526 -1
0.74661 0.175737 0.546806 0.140688 -1
-0.530364 0.137657 -0.175304 0.138849 -1
0.188126 0.757305 0.237422 0.13701 -1
-0.448722 0.430502 -0.074987 0.135171 -1
-0.642124 0.466286 0.414659 0.133332 -1
-0.738021 0.123488 0.180462 0.131493 -1
-0.318175 0.425297 0.316104 0.129654 -1
-0.168074 0.128676 -0.347127 0.127816 -1
-0.432163 0.657665 0.296657 0.125977 -1
-0.559825 0.138914 0.367744 0.124138 -1
-0.30799 0.467838 0.855724 0.122299 -1
-0.661005 0.592507 0.0753055 0.12046 -1
0.0877815 0.124477 -0.350033 0.118621 -1
0.0940436 0.369763 0.622094 0.116782 -1
0.599261 0.154004 -0.585055 0.114943 -1
0.511767 0.392425 -0.33698 0.113105 -1
-0.0809103 0.10979 -0.0453482 0.111266 -1
0.272899 0.227648 -0.876684 0.109427 -1
0.299383 0.936117 -0.181249 0.107588 -1
0.703627 0.207717 0.196922 0.105749 -1
0.108272 1.06337 -0.199204 0.10391 -1
0.624952 0.590992 0.519224 0.102071 -1
-0.321168 0.599818 0.0557533 0.100232 -1
0.191357 0.939409 0.61949 0.0983936 -1
-0.765211 0.26521 0.355838 0.0965547 -1
