0.445453 0.672215 -0.360283 0.186659 -1
0.716713 0.186152 -0.217085 0.18482 -1
-0.0678633 0.632395 0.593315 0.182982 -1
-0.0962548 0.398063 -0.0792056 0.181143 -1
0.792567 0.582786 -0.209728 0.179304 -1
0.476191 0.39213 0.307562 0.177465 -1
0.285394 0.175428 -0.0931194 0.175626 -1
-0.344738 0.182082 0.0799284 0.173787 -1
0.167168 0.631825 -0.0657673 0.171948 -1
-0.111904 0.160953 -0.767705 0.17011 -1
0.357124 0.161728 -0.439717 0.168271 -1
-0.558153 0.440984 -0.712875 0.166432 -1
0.0394398 1.14477 0.0918853 0.164593 -1
-0.0162992 0.401075 -0.567405 0.162754 -1
-0.238094 0.903096 -0.550692 0.160915 -1
0.472877 0.451765 -0.0656491 0.159076 -1
0.0138122 0.438635 0.240908 0.157237 -1
-0.0517779 0.153125 0.693002 0.155399 -1
-0.851774 0.326504 -0.125515 0.15356 -1
-0.764086 0.222893 -0.460241 0.151721 -1
0.471835 0.875644 0.285819 0.149882 -1
0.15731 0.163272 0.349449 0.148043 -1
0.387699 0.191997 0.594671 0.146204 -1
-0.250096 0.684154 -0.25774 0.144365 -1
-0.499012 0.788136 -0.061372 0.142526 -1
0.76491 0.158481 0.554004 0.140688 -1
-0.531416 0.140539 -0.176298 0.138849 -1
0.195566 0.742076 0.245875 0.13701 -1
-0.460247 0.432413 -0.0868868 0.135171 -1
-0.655603 0.442028 0.4199 0.133332 -1
-0.750235 0.124641 0.184298 0.131493 -1
-0.313251 0.396125 0.315511 0.129654 -1
-0.17179 0.127896 -0.349097 0.127816 -1
-0.439721 0.661405 0.305273 0.125977 -1
-0.558957 0.131435 0.367217 0.124138 -1
-0.30628 0.46688 0.839056 0.122299 -1
-0.676147 0.567773 0.0694177 0.12046 -1
0.0823457 0.122729 -0.347372 0.118621 -1
0.0966362 0.367002 0.626129 0.116782 -1
0.607155 0.163668 -0.584113 0.114943 -1
0.49849 0.386296 -0.342452 0.113105 -1
-0.0822755 0.110556 -0.0400167 0.111266 -1
0.282383 0.234552 -0.86739 0.109427 -1
0.310937 0.925621 -0.191726 0.107588 -1
0.685899 0.221885 0.199039 0.105749 -1
0.122931 1.04225 -0.194503 0.10391 -1
0.629607 0.573321 0.52899 0.102071 -1
-0.326669 0.575741 0.0738872 0.100232 -1
0.206915 0.937883 0.632642 0.0983936 -1
-0.773874 0.246579 0.370526 0.0965547 -1
