0.444448 0.668759 -0.362279 0.186659 -1
0.719779 0.187989 -0.216774 0.18482 -1
-0.0662334 0.629605 0.59765 0.182982 -1
-0.0983133 0.396885 -0.0790302 0.181143 -1
0.788465 0.583527 -0.209652 0.179304 -1
0.47793 0.38137 0.310062 0.177465 -1
0.2856 0.175115 -0.0935521 0.175626 -1
-0.345599 0.185286 0.0789711 0.173787 -1
0.168382 0.630373 -0.0663798 0.171948 -1
-0.112364 0.161208 -0.773141 0.17011 -1
0.358576 0.157282 -0.441149 0.168271 -1
-0.560464 0.435933 -0.716304 0.166432 -1
0.0395333 1.14188 0.0941906 0.164593 -1
-0.0158608 0.404425 -0.568317 0.162754 -1
-0.238008 0.895924 -0.552665 0.160915 -1
0.475188 0.449826 -0.0662494 0.159076 -1
0.0105982 0.437344 0.23983 0.157237 -1
-0.0521981 0.154762 0.691998 0.155399 -1
-0.848581 0.322245 -0.126799 0.15356 -1
-0.761218 0.2219 -0.460162 0.151721 -1
0.473593 0.869856 0.287816 0.149882 -1
0.158545 0.162224 0.350441 0.148043 -1
0.386353 0.179341 0.597293 0.146204 -1
-0.25372 0.68421 -0.259341 0.144365 -1
-0.501308 0.781042 -0.0614016 0.142526 -1
0.770445 0.153138 0.556181 0.140688 -1
-0.53173 0.141263 -0.176578 0.138849 -1
0.197817 0.737347 0.248433 0.13701 -1
-0.463734 0.432807 -0.0904864 0.135171 -1
-0.65968 0.434567 0.421485 0.133332 -1
-0.753793 0.131368 0.18375 0.131493 -1
-0.311761 0.387179 0.315332 0.129654 -1
-0.172914 0.127537 -0.349693 0.127816 -1
-0.442008 0.662352 0.307879 0.125977 -1
-0.558694 0.12905 0.367057 0.124138 -1
-0.305763 0.466468 0.834014 0.122299 -1
-0.680727 0.560169 0.0676367 0.12046 -1
0.0805922 0.121982 -0.346523 0.118621 -1
0.0982659 0.367855 0.625448 0.116782 -1
0.609543 0.166407 -0.583828 0.114943 -1
0.501811 0.375422 -0.341131 0.113105 -1
-0.0834303 0.109131 -0.0377577 0.111266 -1
0.285252 0.236457 -0.864579 0.109427 -1
0.314432 0.922323 -0.194896 0.107588 -1
0.680537 0.225987 0.199679 0.105749 -1
0.127365 1.03574 -0.193081 0.10391 -1
0.631016 0.567853 0.531945 0.102071 -1
-0.328332 0.568335 0.0793725 0.100232 -1
0.211622 0.937298 0.63662 0.0983936 -1
-0.777867 0.246919 0.377203 0.0965547 -1
