0.433489 0.643792 -0.381842 0.186659 -1
0.756687 0.1884 -0.207825 0.18482 -1
-0.0528859 0.609186 0.636819 0.182982 -1
-0.107121 0.396789 -0.089769 0.181143 -1
0.753027 0.586422 -0.20977 0.179304 -1
0.468115 0.305575 0.341947 0.177465 -1
0.285823 0.175195 -0.101935 0.175626 -1
-0.358218 0.183102 0.0698092 0.173787 -1
0.180301 0.613031 -0.0723923 0.171948 -1
-0.107451 0.194186 -0.80432 0.17011 -1
0.358391 0.188046 -0.451154 0.168271 -1
-0.583146 0.383255 -0.749954 0.166432 -1
0.0404508 1.11044 0.116817 0.164593 -1
-0.0112677 0.434291 -0.576882 0.162754 -1
-0.237161 0.822444 -0.572026 0.160915 -1
0.493994 0.431331 -0.067876 0.159076 -1
-0.017878 0.431242 0.241518 0.157237 -1
-0.0581471 0.160628 0.690565 0.155399 -1
-0.81217 0.280844 -0.14055 0.15356 -1
-0.733061 0.209063 -0.459393 0.151721 -1
0.490846 0.809956 0.307418 0.149882 -1
0.170661 0.148837 0.36018 0.148043 -1
0.381629 0.165506 0.614165 0.146204 -1
-0.289285 0.681377 -0.275059 0.144365 -1
-0.523841 0.708323 -0.0616922 0.142526 -1
0.798002 0.149564 0.561394 0.140688 -1
-0.538591 0.143922 -0.183666 0.138849 -1
0.219906 0.687836 0.273532 0.13701 -1
-0.497952 0.432439 -0.125817 0.135171 -1
-0.680393 0.40279 0.453774 0.133332 -1
-0.791831 0.174846 0.16553 0.131493 -1
-0.309599 0.355156 0.340567 0.129654 -1
-0.180089 0.12811 -0.351664 0.127816 -1
-0.464449 0.667009 0.333457 0.125977 -1
-0.562249 0.130782 0.369596 0.124138 -1
-0.300688 0.459326 0.784528 0.122299 -1
-0.725684 0.482437 0.0501559 0.12046 -1
0.0682092 0.119877 -0.340139 0.118621 -1
0.126543 0.354335 0.619864 0.116782 -1
0.63298 0.188651 -0.581031 0.114943 -1
0.544888 0.358668 -0.341008 0.113105 -1
-0.0957094 0.110818 -0.0280604 0.111266 -1
0.313412 0.250509 -0.836984 0.109427 -1
0.35621 0.88463 -0.221688 0.107588 -1
0.732354 0.142967 0.16914 0.105749 -1
0.158443 0.972136 -0.183914 0.10391 -1
0.644837 0.511092 0.560941 0.102071 -1
-0.344663 0.492551 0.133211 0.100232 -1
0.257815 0.928469 0.675668 0.0983936 -1
-0.83964 0.204666 0.416273 0.0965547 -1
