0.434798 0.643931 -0.379885 0.186659 -1
0.752529 0.189352 -0.20907 0.18482 -1
-0.0540447 0.61075 0.633066 0.182982 -1
-0.107005 0.396052 -0.0879009 0.181143 -1
0.753989 0.586374 -0.209293 0.179304 -1
0.46945 0.313176 0.338567 0.177465 -1
0.285904 0.175207 -0.101024 0.175626 -1
-0.356982 0.184996 0.0695626 0.173787 -1
0.17908 0.615067 -0.0717764 0.171948 -1
-0.108044 0.190884 -0.801335 0.17011 -1
0.358739 0.184996 -0.450144 0.168271 -1
-0.580822 0.38891 -0.746507 0.166432 -1
0.0403568 1.11392 0.114499 0.164593 -1
-0.0117382 0.43162 -0.576004 0.162754 -1
-0.237248 0.83023 -0.570042 0.160915 -1
0.494908 0.433087 -0.0685097 0.159076 -1
-0.0151049 0.43171 0.240865 0.157237 -1
-0.0575352 0.160427 0.690702 0.155399 -1
-0.8159 0.285344 -0.139141 0.15356 -1
-0.735945 0.210637 -0.459472 0.151721 -1
0.489078 0.816351 0.30541 0.149882 -1
0.16942 0.150467 0.359183 0.148043 -1
0.381162 0.155213 0.613565 0.146204 -1
-0.285642 0.681926 -0.273449 0.144365 -1
-0.521533 0.716031 -0.0616624 0.142526 -1
0.79794 0.145334 0.562423 0.140688 -1
-0.536739 0.143955 -0.18163 0.138849 -1
0.217643 0.693167 0.270961 0.13701 -1
-0.494447 0.432766 -0.122198 0.135171 -1
-0.678495 0.405815 0.450295 0.133332 -1
-0.787781 0.171269 0.16781 0.131493 -1
-0.309239 0.355947 0.336707 0.129654 -1
-0.179463 0.128183 -0.351569 0.127816 -1
-0.46215 0.666921 0.330837 0.125977 -1
-0.561385 0.128847 0.369003 0.124138 -1
-0.301208 0.460317 0.789597 0.122299 -1
-0.721079 0.490659 0.0519465 0.12046 -1
0.0686955 0.11909 -0.340477 0.118621 -1
0.123106 0.358273 0.619477 0.116782 -1
0.63058 0.186762 -0.581318 0.114943 -1
0.540424 0.361815 -0.340429 0.113105 -1
-0.0963252 0.111095 -0.0274392 0.111266 -1
0.310527 0.249459 -0.839811 0.109427 -1
0.351283 0.888942 -0.219315 0.107588 -1
0.725751 0.153087 0.172809 0.105749 -1
0.156337 0.978617 -0.184441 0.10391 -1
0.643421 0.517165 0.557971 0.102071 -1
-0.34299 0.500573 0.127697 0.100232 -1
0.253083 0.929633 0.671668 0.0983936 -1
-0.833439 0.209037 0.411804 0.0965547 -1
