0.430398 0.638892 -0.395139 0.186659 -1
0.780488 0.182247 -0.20067 0.18482 -1
-0.0461626 0.598919 0.658595 0.182982 -1
-0.107791 0.399276 -0.100607 0.181143 -1
0.75723 0.585777 -0.214338 0.179304 -1
0.4671 0.291829 0.338983 0.177465 -1
0.28152 0.172347 -0.102552 0.175626 -1
-0.365388 0.170922 0.0712423 0.173787 -1
0.187384 0.600028 -0.0759655 0.171948 -1
-0.104013 0.211553 -0.821641 0.17011 -1
0.354347 0.194807 -0.458788 0.168271 -1
-0.596625 0.349251 -0.769952 0.166432 -1
0.0409961 1.08905 0.130264 0.164593 -1
-0.00853803 0.447994 -0.581972 0.162754 -1
-0.236658 0.776078 -0.583532 0.160915 -1
0.487087 0.435232 -0.0647585 0.159076 -1
-0.0339673 0.42733 0.245301 0.157237 -1
-0.0616971 0.160267 0.689767 0.155399 -1
-0.799158 0.259108 -0.150569 0.15356 -1
-0.716328 0.198737 -0.458936 0.151721 -1
0.501099 0.77166 0.319067 0.149882 -1
0.174515 0.147305 0.365249 0.148043 -1
0.375426 0.166495 0.64788 0.146204 -1
-0.310421 0.676996 -0.284399 0.144365 -1
-0.541693 0.683867 -0.0620141 0.142526 -1
0.798364 0.172318 0.555424 0.140688 -1
-0.539768 0.135337 -0.194145 0.138849 -1
0.233033 0.655715 0.288448 0.13701 -1
-0.510444 0.412408 -0.146425 0.135171 -1
-0.691405 0.38405 0.473962 0.133332 -1
-0.815324 0.193808 0.152301 0.131493 -1
-0.311497 0.349136 0.363132 0.129654 -1
-0.18401 0.127441 -0.35251 0.127816 -1
-0.477786 0.666148 0.348658 0.125977 -1
-0.567257 0.140221 0.373041 0.124138 -1
-0.297672 0.452385 0.755118 0.122299 -1
-0.747584 0.43822 0.0434654 0.12046 -1
0.0653878 0.122658 -0.338174 0.118621 -1
0.146483 0.330291 0.622108 0.116782 -1
0.646909 0.197826 -0.579369 0.114943 -1
0.577452 0.36849 -0.338518 0.113105 -1
-0.0938349 0.111531 -0.0296985 0.111266 -1
0.330146 0.254815 -0.820585 0.109427 -1
0.36342 0.878768 -0.221644 0.107588 -1
0.766309 0.0947306 0.150462 0.105749 -1
0.170664 0.933346 -0.180855 0.10391 -1
0.653051 0.474662 0.578174 0.102071 -1
-0.354638 0.445541 0.164656 0.100232 -1
0.285267 0.920525 0.698874 0.0983936 -1
-0.87562 0.178112 0.442201 0.0965547 -1
