0.431443 0.611796 -0.432686 0.186659 -1
0.81799 0.189817 -0.187508 0.18482 -1
-0.0234265 0.569741 0.703637 0.182982 -1
-0.109734 0.394328 -0.127939 0.181143 -1
0.778629 0.583092 -0.218082 0.179304 -1
0.472601 0.272326 0.31724 0.177465 -1
0.279111 0.17934 -0.101779 0.175626 -1
-0.371392 0.172623 0.0938633 0.173787 -1
0.184256 0.581176 -0.0747746 0.171948 -1
-0.0903026 0.248207 -0.820538 0.17011 -1
0.344045 0.198632 -0.478185 0.168271 -1
-0.630806 0.254047 -0.820661 0.166432 -1
0.0423788 1.02585 0.164361 0.164593 -1
0.00493404 0.457984 -0.592039 0.162754 -1
-0.241423 0.669803 -0.610308 0.160915 -1
0.503051 0.431251 -0.0659452 0.159076 -1
-0.074765 0.408429 0.254894 0.157237 -1
-0.0703022 0.15488 0.685903 0.155399 -1
-0.845776 0.222886 -0.199623 0.15356 -1
-0.685077 0.165628 -0.466757 0.151721 -1
0.529795 0.66941 0.347831 0.149882 -1
0.168382 0.157754 0.373448 0.148043 -1
0.37209 0.151357 0.728228 0.146204 -1
-0.364017 0.656905 -0.308085 0.144365 -1
-0.597305 0.663948 -0.0629159 0.142526 -1
0.802019 0.206691 0.540059 0.140688 -1
-0.536712 0.147502 -0.206691 0.138849 -1
0.261025 0.561374 0.326947 0.13701 -1
-0.490753 0.42975 -0.16214 0.135171 -1
-0.719328 0.327547 0.525152 0.133332 -1
-0.874648 0.208336 0.118839 0.131493 -1
-0.301056 0.297975 0.440563 0.129654 -1
-0.194914 0.127817 -0.355827 0.127816 -1
-0.511604 0.654982 0.387203 0.125977 -1
-0.579956 0.150684 0.381777 0.124138 -1
-0.314024 0.410488 0.714624 0.122299 -1
-0.727742 0.433348 0.0832708 0.12046 -1
0.0582334 0.118583 -0.333193 0.118621 -1
0.163785 0.286794 0.628853 0.116782 -1
0.682228 0.207616 -0.575154 0.114943 -1
0.602145 0.354026 -0.353876 0.113105 -1
-0.0930711 0.110961 -0.0295675 0.111266 -1
0.372581 0.253386 -0.779002 0.109427 -1
0.402266 0.842214 -0.240308 0.107588 -1
0.738425 0.203966 0.176016 0.105749 -1
0.135429 0.90761 -0.138982 0.10391 -1
0.666715 0.399145 0.622464 0.102071 -1
-0.42521 0.461007 0.182219 0.100232 -1
0.354879 0.891398 0.757718 0.0983936 -1
-0.87413 0.111958 0.487358 0.0965547 -1
