0.430687 0.632678 -0.405518 0.186659 -1
0.792586 0.183856 -0.196648 0.18482 -1
-0.0405462 0.59144 0.672224 0.182982 -1
-0.108261 0.39926 -0.108204 0.181143 -1
0.760438 0.584133 -0.2176 0.179304 -1
0.467801 0.28761 0.332645 0.177465 -1
0.281148 0.178591 -0.101016 0.175626 -1
-0.369136 0.171649 0.075467 0.173787 -1
0.192349 0.589707 -0.07847 0.171948 -1
-0.101604 0.221916 -0.833781 0.17011 -1
0.351499 0.197678 -0.46415 0.168271 -1
-0.606074 0.324211 -0.783969 0.166432 -1
0.0413783 1.07286 0.139689 0.164593 -1
-0.00662473 0.455789 -0.58554 0.162754 -1
-0.236305 0.742372 -0.591597 0.160915 -1
0.484172 0.440028 -0.063162 0.159076 -1
-0.0452446 0.423381 0.247953 0.157237 -1
-0.0641854 0.158783 0.689208 0.155399 -1
-0.809476 0.246873 -0.164996 0.15356 -1
-0.7046 0.190292 -0.458615 0.151721 -1
0.508286 0.743611 0.327232 0.149882 -1
0.174231 0.152377 0.36808 0.148043 -1
0.369355 0.154078 0.678051 0.146204 -1
-0.325236 0.672718 -0.290947 0.144365 -1
-0.557124 0.679207 -0.0624443 0.142526 -1
0.798618 0.186456 0.551239 0.140688 -1
-0.53731 0.133464 -0.196938 0.138849 -1
0.242235 0.631993 0.298903 0.13701 -1
-0.51242 0.392825 -0.158486 0.135171 -1
-0.699123 0.369707 0.488112 0.133332 -1
-0.831791 0.205288 0.143028 0.131493 -1
-0.308611 0.33627 0.384535 0.129654 -1
-0.187488 0.127971 -0.353846 0.127816 -1
-0.487134 0.664337 0.359313 0.125977 -1
-0.570767 0.145027 0.375456 0.124138 -1
-0.299595 0.44388 0.739976 0.122299 -1
-0.742625 0.430797 0.0542092 0.12046 -1
0.0634101 0.122847 -0.336797 0.118621 -1
0.16046 0.312232 0.623681 0.116782 -1
0.656672 0.202445 -0.578204 0.114943 -1
0.600322 0.373713 -0.336736 0.113105 -1
-0.0927937 0.11099 -0.0305354 0.111266 -1
0.341876 0.256023 -0.809091 0.109427 -1
0.373727 0.870324 -0.22651 0.107588 -1
0.759435 0.12489 0.156899 0.105749 -1
0.161403 0.926908 -0.169606 0.10391 -1
0.658809 0.44792 0.590253 0.102071 -1
-0.370422 0.435257 0.168555 0.100232 -1
0.304509 0.913749 0.71514 0.0983936 -1
-0.90084 0.158292 0.460374 0.0965547 -1
