0.430593 0.634799 -0.40215 0.186659 -1
0.789211 0.182752 -0.197831 0.18482 -1
-0.0426682 0.593664 0.668331 0.182982 -1
-0.108108 0.399389 -0.105739 0.181143 -1
0.759397 0.584772 -0.216541 0.179304 -1
0.467573 0.289084 0.334701 0.177465 -1
0.281235 0.176957 -0.101337 0.175626 -1
-0.368201 0.169865 0.0734138 0.173787 -1
0.190738 0.593161 -0.0776574 0.171948 -1
-0.102386 0.218712 -0.829842 0.17011 -1
0.352423 0.196904 -0.46241 0.168271 -1
-0.603008 0.332441 -0.779421 0.166432 -1
0.0412543 1.07822 0.136631 0.164593 -1
-0.00724553 0.453418 -0.584382 0.162754 -1
-0.236419 0.753414 -0.58898 0.160915 -1
0.484969 0.438249 -0.0638557 0.159076 -1
-0.0415855 0.424768 0.247092 0.157237 -1
-0.0633781 0.15937 0.689389 0.155399 -1
-0.806128 0.250949 -0.160315 0.15356 -1
-0.708405 0.193138 -0.458719 0.151721 -1
0.505954 0.752818 0.324583 0.149882 -1
0.174323 0.15089 0.367161 0.148043 -1
0.371325 0.158212 0.668262 0.146204 -1
-0.320429 0.674212 -0.288822 0.144365 -1
-0.552117 0.680825 -0.0623047 0.142526 -1
0.798536 0.182027 0.552597 0.140688 -1
-0.535344 0.133091 -0.195695 0.138849 -1
0.239249 0.639795 0.295511 0.13701 -1
-0.512893 0.394915 -0.155904 0.135171 -1
-0.696619 0.374466 0.483521 0.133332 -1
-0.826448 0.201721 0.146037 0.131493 -1
-0.309548 0.34055 0.37759 0.129654 -1
-0.186354 0.127921 -0.353407 0.127816 -1
-0.484101 0.66503 0.355856 0.125977 -1
-0.569628 0.143626 0.374673 0.124138 -1
-0.297807 0.447553 0.743119 0.122299 -1
-0.744234 0.433311 0.0507232 0.12046 -1
0.0640518 0.122909 -0.337244 0.118621 -1
0.155925 0.318197 0.623171 0.116782 -1
0.653504 0.201105 -0.578582 0.114943 -1
0.592901 0.372176 -0.337314 0.113105 -1
-0.0931315 0.111271 -0.0302639 0.111266 -1
0.33807 0.255789 -0.81282 0.109427 -1
0.370189 0.873342 -0.2248 0.107588 -1
0.762039 0.114388 0.154529 0.105749 -1
0.164623 0.928833 -0.173402 0.10391 -1
0.656941 0.456702 0.586334 0.102071 -1
-0.365301 0.438699 0.16729 0.100232 -1
0.298266 0.916053 0.709862 0.0983936 -1
-0.892657 0.164829 0.454478 0.0965547 -1
