0.432315 0.579379 -0.464035 0.186659 -1
0.802242 0.194896 -0.184211 0.18482 -1
-0.00367253 0.536379 0.739883 0.182982 -1
-0.115321 0.378227 -0.148315 0.181143 -1
0.800535 0.574478 -0.217792 0.179304 -1
0.475319 0.24749 0.305372 0.177465 -1
0.276541 0.174291 -0.103494 0.175626 -1
-0.373094 0.175259 0.105139 0.173787 -1
0.178908 0.569073 -0.0719883 0.171948 -1
-0.0775563 0.230217 -0.826498 0.17011 -1
0.335599 0.190723 -0.490609 0.168271 -1
-0.64977 0.184359 -0.827244 0.166432 -1
0.0435332 0.963283 0.19283 0.164593 -1
0.0431927 0.457929 -0.556572 0.162754 -1
-0.270269 0.655552 -0.622151 0.160915 -1
0.527739 0.409314 -0.0706905 0.159076 -1
-0.108828 0.382854 0.262904 0.157237 -1
-0.0776812 0.155286 0.675846 0.155399 -1
-0.826516 0.22104 -0.211352 0.15356 -1
-0.683643 0.153028 -0.492181 0.151721 -1
0.557451 0.579497 0.370789 0.149882 -1
0.160792 0.153251 0.379305 0.148043 -1
0.389223 0.165962 0.759463 0.146204 -1
-0.410259 0.650073 -0.333603 0.144365 -1
-0.640851 0.661661 -0.0529688 0.142526 -1
0.814909 0.188743 0.526784 0.140688 -1
-0.496878 0.149936 -0.189657 0.138849 -1
0.272027 0.478143 0.358767 0.13701 -1
-0.468055 0.42143 -0.169438 0.135171 -1
-0.728404 0.291095 0.570091 0.133332 -1
-0.835629 0.200685 0.112505 0.131493 -1
-0.29238 0.238402 0.482341 0.129654 -1
-0.202346 0.127564 -0.357214 0.127816 -1
-0.53984 0.635864 0.419386 0.125977 -1
-0.590558 0.146665 0.389071 0.124138 -1
-0.330623 0.375793 0.706026 0.122299 -1
-0.709645 0.43634 0.117278 0.12046 -1
0.0541256 0.120328 -0.329812 0.118621 -1
0.159636 0.294931 0.632123 0.116782 -1
0.711716 0.203035 -0.571635 0.114943 -1
0.598956 0.319704 -0.376048 0.113105 -1
-0.0950828 0.111227 -0.0266997 0.111266 -1
0.407444 0.242634 -0.757997 0.109427 -1
0.435197 0.801457 -0.25623 0.107588 -1
0.740932 0.259846 0.177777 0.105749 -1
0.105458 0.877019 -0.103646 0.10391 -1
0.652359 0.414825 0.660612 0.102071 -1
-0.494415 0.502837 0.199431 0.100232 -1
0.412999 0.857286 0.806847 0.0983936 -1
-0.852139 0.094513 0.507849 0.0965547 -1
