0.431758 0.601079 -0.444029 0.186659 -1
0.817104 0.191605 -0.185239 0.18482 -1
-0.0162787 0.558683 0.716752 0.182982 -1
-0.111751 0.389519 -0.135315 0.181143 -1
0.786555 0.580989 -0.217977 0.179304 -1
0.474782 0.26397 0.310879 0.177465 -1
0.278247 0.177362 -0.102123 0.175626 -1
-0.371928 0.173359 0.0989763 0.173787 -1
0.182312 0.577806 -0.0737629 0.171948 -1
-0.0866841 0.239358 -0.830959 0.17011 -1
0.340932 0.196833 -0.484045 0.168271 -1
-0.641133 0.222754 -0.835981 0.166432 -1
0.0427965 1.00422 0.174662 0.164593 -1
0.0187777 0.459209 -0.579205 0.162754 -1
-0.251861 0.66566 -0.614594 0.160915 -1
0.511984 0.424326 -0.0676623 0.159076 -1
-0.0870905 0.400188 0.257793 0.157237 -1
-0.0727631 0.156134 0.681698 0.155399 -1
-0.851297 0.218257 -0.209512 0.15356 -1
-0.685395 0.154806 -0.476912 0.151721 -1
0.539802 0.637889 0.356139 0.149882 -1
0.165636 0.157138 0.375567 0.148043 -1
0.37829 0.158162 0.73953 0.146204 -1
-0.380208 0.648305 -0.315241 0.144365 -1
-0.613062 0.664258 -0.0593166 0.142526 -1
0.806683 0.20121 0.535256 0.140688 -1
-0.522697 0.151628 -0.200898 0.138849 -1
0.266854 0.528404 0.338912 0.13701 -1
-0.482549 0.432249 -0.168038 0.135171 -1
-0.727763 0.307947 0.540617 0.133332 -1
-0.862391 0.206389 0.115985 0.131493 -1
-0.297901 0.279987 0.463956 0.129654 -1
-0.197407 0.127506 -0.356131 0.127816 -1
-0.521821 0.649078 0.398849 0.125977 -1
-0.583792 0.150243 0.384416 0.124138 -1
-0.320049 0.394549 0.704039 0.122299 -1
-0.721194 0.435898 0.0955762 0.12046 -1
0.0565113 0.118632 -0.331871 0.118621 -1
0.15886 0.288277 0.629532 0.116782 -1
0.692898 0.206972 -0.573881 0.114943 -1
0.600992 0.34262 -0.361899 0.113105 -1
-0.0940418 0.111271 -0.0282016 0.111266 -1
0.385401 0.250267 -0.766439 0.109427 -1
0.414182 0.82848 -0.24607 0.107588 -1
0.729654 0.233985 0.183998 0.105749 -1
0.124584 0.897554 -0.126196 0.10391 -1
0.66152 0.406339 0.636268 0.102071 -1
-0.450252 0.477663 0.188447 0.100232 -1
0.375909 0.880068 0.775495 0.0983936 -1
-0.855084 0.0916115 0.496639 0.0965547 -1
