0.432406 0.575474 -0.467316 0.186659 -1
0.799804 0.194918 -0.184042 0.18482 -1
-0.00160493 0.532376 0.743677 0.182982 -1
-0.115906 0.37603 -0.150447 0.181143 -1
0.802828 0.573065 -0.217762 0.179304 -1
0.476697 0.242258 0.305141 0.177465 -1
0.27616 0.174982 -0.104143 0.175626 -1
-0.373286 0.175102 0.10615 0.173787 -1
0.178349 0.567295 -0.0716972 0.171948 -1
-0.0758369 0.229227 -0.824064 0.17011 -1
0.334772 0.189329 -0.490445 0.168271 -1
-0.650571 0.179018 -0.823785 0.166432 -1
0.043654 0.956223 0.195809 0.164593 -1
0.0471972 0.457374 -0.552859 0.162754 -1
-0.273288 0.653549 -0.623391 0.160915 -1
0.530323 0.406506 -0.0711872 0.159076 -1
-0.112393 0.379665 0.263743 0.157237 -1
-0.077994 0.15578 0.675415 0.155399 -1
-0.822373 0.221016 -0.211607 0.15356 -1
-0.682954 0.155787 -0.494162 0.151721 -1
0.560346 0.569575 0.373192 0.149882 -1
0.159997 0.152268 0.379919 0.148043 -1
0.391016 0.166723 0.762732 0.146204 -1
-0.415273 0.650886 -0.336927 0.144365 -1
-0.645409 0.66089 -0.0519277 0.142526 -1
0.816258 0.186353 0.525395 0.140688 -1
-0.492034 0.146435 -0.187296 0.138849 -1
0.269441 0.47734 0.361186 0.13701 -1
-0.466563 0.422679 -0.169783 0.135171 -1
-0.726171 0.291255 0.575286 0.133332 -1
-0.831239 0.199404 0.111934 0.131493 -1
-0.291353 0.230042 0.48189 0.129654 -1
-0.202989 0.127554 -0.357273 0.127816 -1
-0.542795 0.633352 0.422754 0.125977 -1
-0.591668 0.145733 0.389834 0.124138 -1
-0.332503 0.374431 0.709399 0.122299 -1
-0.707751 0.436017 0.120838 0.12046 -1
0.0537344 0.120178 -0.329475 0.118621 -1
0.159763 0.295505 0.632548 0.116782 -1
0.714803 0.202044 -0.571267 0.114943 -1
0.598623 0.3156 -0.378369 0.113105 -1
-0.0951636 0.111187 -0.0265616 0.111266 -1
0.410885 0.241263 -0.761124 0.109427 -1
0.438643 0.796679 -0.257896 0.107588 -1
0.744152 0.262309 0.175722 0.105749 -1
0.102321 0.873306 -0.0999473 0.10391 -1
0.650857 0.415699 0.664605 0.102071 -1
-0.501658 0.506448 0.201233 0.100232 -1
0.419082 0.853203 0.81199 0.0983936 -1
-0.854064 0.101246 0.509993 0.0965547 -1
